tb_control_unit_assert.vcd
$date
	Fri May  1 23:41:13 2026
$end
$version
	Icarus Verilog
$end
$timescale
	1ps
$end
$scope module tb_control_unit_assert $end
$var wire 1 ! timer_enable $end
$var wire 16 " tick_divider [15:0] $end
$var wire 1 # sq_flush $end
$var wire 1 $ sq_enqueue $end
$var wire 4 % sq_enq_id [3:0] $end
$var wire 32 & sq_enq_counter [31:0] $end
$var wire 32 ' rsp_word [31:0] $end
$var wire 1 ( pq_flush $end
$var wire 1 ) pq_enqueue $end
$var wire 16 * pq_enq_key [15:0] $end
$var wire 4 + pq_enq_id [3:0] $end
$var wire 1 , pq_dequeue $end
$var wire 1 - need_word2 $end
$var wire 8 . irq_reason [7:0] $end
$var wire 1 / irq_n $end
$var wire 8 0 fast_mask [7:0] $end
$var wire 4 1 current_task [3:0] $end
$var reg 1 2 clk $end
$var reg 1 3 cmd_valid $end
$var reg 32 4 cmd_word [31:0] $end
$var reg 32 5 cmd_word2 [31:0] $end
$var reg 1 6 cmd_word2_valid $end
$var reg 1 7 fast_irq $end
$var reg 1 8 irq_pending $end
$var reg 5 9 pq_depth [4:0] $end
$var reg 4 : pq_head_id [3:0] $end
$var reg 16 ; pq_head_key [15:0] $end
$var reg 1 < pq_head_valid $end
$var reg 1 = rst_n $end
$var reg 1 > seen_need_word2 $end
$var reg 1 ? seen_pending_word2 $end
$var reg 5 @ sq_depth [4:0] $end
$var reg 4 A sq_wake_id [3:0] $end
$var reg 1 B sq_wake_valid $end
$var reg 1 C tick_pulse $end
$var integer 32 D i [31:0] $end
$scope module dut $end
$var wire 1 2 clk $end
$var wire 1 3 cmd_valid $end
$var wire 32 E cmd_word [31:0] $end
$var wire 32 F cmd_word2 [31:0] $end
$var wire 1 6 cmd_word2_valid $end
$var wire 1 7 fast_irq $end
$var wire 1 8 irq_pending $end
$var wire 5 G pq_depth [4:0] $end
$var wire 4 H pq_head_id [3:0] $end
$var wire 16 I pq_head_key [15:0] $end
$var wire 1 < pq_head_valid $end
$var wire 1 = rst_n $end
$var wire 5 J sq_depth [4:0] $end
$var wire 4 K sq_wake_id [3:0] $end
$var wire 1 B sq_wake_valid $end
$var wire 1 C tick_pulse $end
$var wire 16 L tt_rd_wcet [15:0] $end
$var wire 1 M tt_rd_type $end
$var wire 3 N tt_rd_status [2:0] $end
$var wire 16 O tt_rd_remaining_wcet [15:0] $end
$var wire 4 P tt_rd_priority [3:0] $end
$var wire 1 Q tt_rd_preemptable $end
$var wire 16 R tt_rd_period [15:0] $end
$var wire 16 S tt_rd_deadline [15:0] $end
$var wire 16 T tt_rd_abs_deadline [15:0] $end
$var wire 4 U task_id [3:0] $end
$var wire 4 V opcode [3:0] $end
$var parameter 32 W ID_WIDTH $end
$var parameter 32 X KEY_WIDTH $end
$var parameter 32 Y NUM_TASKS $end
$var parameter 4 Z OP_ACTIVATE $end
$var parameter 4 [ OP_CONFIG $end
$var parameter 4 \ OP_CREATE $end
$var parameter 4 ] OP_DELETE $end
$var parameter 4 ^ OP_MODIFY $end
$var parameter 4 _ OP_NOP $end
$var parameter 4 ` OP_QUERY $end
$var parameter 4 a OP_RESET $end
$var parameter 4 b OP_RESUME $end
$var parameter 4 c OP_RUN $end
$var parameter 4 d OP_SCAN $end
$var parameter 4 e OP_SLEEP $end
$var parameter 4 f OP_SSLEEP $end
$var parameter 4 g OP_STOP $end
$var parameter 4 h OP_SUSPEND $end
$var parameter 4 i OP_YIELD $end
$var reg 4 j current_task [3:0] $end
$var reg 8 k fast_mask [7:0] $end
$var reg 8 l flags_reg [7:0] $end
$var reg 1 / irq_n $end
$var reg 8 m irq_reason [7:0] $end
$var reg 1 - need_word2 $end
$var reg 4 n pending_opcode [3:0] $end
$var reg 4 o pending_task_id [3:0] $end
$var reg 32 p pending_word1 [31:0] $end
$var reg 1 q pending_word2 $end
$var reg 1 , pq_dequeue $end
$var reg 16 r pq_eff_abs_deadline [15:0] $end
$var reg 16 s pq_eff_remaining_wcet [15:0] $end
$var reg 4 t pq_enq_id [3:0] $end
$var reg 16 u pq_enq_key [15:0] $end
$var reg 1 ) pq_enqueue $end
$var reg 1 ( pq_flush $end
$var reg 32 v rsp_word [31:0] $end
$var reg 2 w sched_mode [1:0] $end
$var reg 32 x sq_enq_counter [31:0] $end
$var reg 4 y sq_enq_id [3:0] $end
$var reg 1 $ sq_enqueue $end
$var reg 1 # sq_flush $end
$var reg 32 z tick_count [31:0] $end
$var reg 16 { tick_divider [15:0] $end
$var reg 1 ! timer_enable $end
$var reg 1 | tt_clear_all $end
$var reg 4 } tt_rd_id [3:0] $end
$var reg 16 ~ tt_wr_abs_deadline [15:0] $end
$var reg 16 !" tt_wr_deadline [15:0] $end
$var reg 1 "" tt_wr_en $end
$var reg 4 #" tt_wr_id [3:0] $end
$var reg 16 $" tt_wr_period [15:0] $end
$var reg 1 %" tt_wr_preemptable $end
$var reg 4 &" tt_wr_priority [3:0] $end
$var reg 16 '" tt_wr_remaining_wcet [15:0] $end
$var reg 3 (" tt_wr_status [2:0] $end
$var reg 1 )" tt_wr_type $end
$var reg 16 *" tt_wr_wcet [15:0] $end
$scope module u_task_table $end
$var wire 1 | clear_all $end
$var wire 1 2 clk $end
$var wire 1 +" rd_en $end
$var wire 4 ," rd_id [3:0] $end
$var wire 1 = rst_n $end
$var wire 16 -" wr_abs_deadline [15:0] $end
$var wire 16 ." wr_deadline [15:0] $end
$var wire 1 "" wr_en $end
$var wire 4 /" wr_id [3:0] $end
$var wire 16 0" wr_period [15:0] $end
$var wire 1 %" wr_preemptable $end
$var wire 4 1" wr_priority [3:0] $end
$var wire 16 2" wr_remaining_wcet [15:0] $end
$var wire 3 3" wr_status [2:0] $end
$var wire 1 )" wr_type $end
$var wire 16 4" wr_wcet [15:0] $end
$var parameter 32 5" ID_WIDTH $end
$var parameter 32 6" NUM_TASKS $end
$var reg 16 7" rd_abs_deadline [15:0] $end
$var reg 16 8" rd_deadline [15:0] $end
$var reg 16 9" rd_period [15:0] $end
$var reg 1 Q rd_preemptable $end
$var reg 4 :" rd_priority [3:0] $end
$var reg 16 ;" rd_remaining_wcet [15:0] $end
$var reg 3 <" rd_status [2:0] $end
$var reg 1 M rd_type $end
$var reg 16 =" rd_wcet [15:0] $end
$var integer 32 >" i [31:0] $end
$upscope $end
$scope task prep_tt_write $end
$upscope $end
$upscope $end
$scope task send_cmd $end
$var reg 32 ?" w [31:0] $end
$upscope $end
$scope task send_word2 $end
$var reg 32 @" w2 [31:0] $end
$upscope $end
$upscope $end
$enddefinitions $end
$comment Show the parameter values. $end
$dumpall
b10000 6"
b100 5"
b1001 i
b1010 h
b11 g
b1000 f
b111 e
b1110 d
b10 c
b1011 b
b1111 a
b1101 `
b0 _
b110 ^
b101 ]
b100 \
b1 [
b1100 Z
b10000 Y
b10000 X
b100 W
$end
#0
$dumpvars
bx @"
bx ?"
bx >"
bx ="
bx <"
bx ;"
bx :"
bx 9"
bx 8"
bx 7"
bx 4"
bx 3"
bx 2"
bx 1"
bx 0"
bx /"
bx ."
bx -"
bx ,"
1+"
bx *"
x)"
bx ("
bx '"
bx &"
x%"
bx $"
bx #"
x""
bx !"
bx ~
bx }
x|
bx {
bx z
bx y
bx x
bx w
bx v
bx u
bx t
bx s
bx r
xq
bx p
bx o
bx n
bx m
bx l
bx k
bx j
b0 V
b0 U
bx T
bx S
bx R
xQ
bx P
bx O
bx N
xM
bx L
b0 K
b0 J
b0 I
b0 H
b0 G
b0 F
b0 E
bx D
0C
0B
b0 A
b0 @
0?
0>
0=
0<
b0 ;
b0 :
b0 9
08
07
06
b0 5
b0 4
03
02
bx 1
bx 0
x/
bx .
x-
x,
bx +
bx *
x)
x(
bx '
bx &
bx %
x$
x#
bx "
x!
$end
#5000
b0 s
b0 r
b0 O
b0 ;"
b0 T
b0 7"
b0 N
b0 <"
0Q
0M
b0 L
b0 ="
b0 S
b0 8"
b0 R
b0 9"
b0 P
b0 :"
b0 *
b0 u
b0 }
b0 ,"
b0 '"
b0 2"
b0 ~
b0 -"
b0 ("
b0 3"
0%"
0)"
b0 *"
b0 4"
b0 !"
b0 ."
b0 $"
b0 0"
b0 &"
b0 1"
b0 #"
b0 /"
1|
0""
b0 p
b0 o
b0 n
0q
b0 z
b11111111 0
b11111111 k
b1111 1
b1111 j
1#
0$
1(
0,
0)
0-
b0 '
b0 v
b0 .
b0 m
1/
0!
b1100100 "
b1100100 {
b0 l
b0 w
b10000 >"
12
#10000
02
#15000
b10000 >"
12
#20000
02
#25000
b10000 >"
12
#30000
02
#35000
0#
0(
0|
b10000 >"
1=
12
#40000
02
#45000
b1 V
13
b10000011000110000000110000000 4
b10000011000110000000110000000 E
b10000011000110000000110000000 ?"
12
#50000
02
#55000
b1111111111111111 *
b1111111111111111 u
b1100000000000001 '
b1100000000000001 v
b10000000 l
b1 "
b1 {
b11 w
b110 0
b110 k
12
#60000
02
#65000
12
#70000
b10 V
b100000000000000000000000000000 4
b100000000000000000000000000000 E
b100000000000000000000000000000 ?"
13
02
#75000
b1100000000000010 '
b1100000000000010 v
1!
12
#80000
02
#85000
12
#90000
b1101 V
b11010000000000100000000000000000 4
b11010000000000100000000000000000 E
b11010000000000100000000000000000 ?"
b10 @
b10 J
b11 9
b11 G
13
02
#95000
b11 '
b11 v
12
#100000
02
#105000
12
#110000
03
02
#115000
b10 '
b10 v
13
b11010000000000110000000000000000 4
b11010000000000110000000000000000 E
b11010000000000110000000000000000 ?"
12
#120000
02
#125000
12
#130000
02
#135000
12
#140000
03
02
#145000
b0 '
b0 v
b1 }
b1 ,"
b100 V
b1 U
13
b1000001000010100000000001100100 4
b1000001000010100000000001100100 E
b1000001000010100000000001100100 ?"
12
#150000
02
#155000
b1000001000010100000000001100100 p
b1 o
b100 n
1q
1-
12
#160000
02
#165000
1-
1>
1?
12
#170000
b1 }
b1 ,"
1C
b0 D
03
02
#175000
b1 }
b1 ,"
b1 z
0-
12
#180000
0C
02
#185000
b10 z
b1 }
b1 ,"
1C
b1 D
12
#190000
02
#195000
b1 }
b1 ,"
b11 z
12
#200000
0C
02
#205000
b100 z
b1 }
b1 ,"
1C
b10 D
12
#210000
02
#215000
b1 }
b1 ,"
b101 z
12
#220000
0C
02
#225000
b110 z
b1 }
b1 ,"
1C
b11 D
12
#230000
02
#235000
b1 }
b1 ,"
b111 z
12
#240000
0C
02
#245000
b1000 z
b1 }
b1 ,"
1C
b100 D
12
#250000
02
#255000
b1 }
b1 ,"
b1001 z
12
#260000
0C
02
#265000
b1010 z
b1 }
b1 ,"
1C
b101 D
12
#270000
02
#275000
b1 }
b1 ,"
b1011 z
12
#280000
0C
02
#285000
b1100 z
b1 }
b1 ,"
1C
b110 D
12
#290000
02
#295000
b1 }
b1 ,"
b1101 z
12
#300000
0C
02
#305000
b1110 z
b1 }
b1 ,"
1C
b111 D
12
#310000
02
#315000
b1 }
b1 ,"
b1111 z
12
#320000
0C
02
#325000
b1100000000000100 '
b1100000000000100 v
b1100100 '"
b1100100 2"
b1110011 ~
b1110011 -"
b1 ("
b1 3"
b1100100 !"
b1100100 ."
b1100100 *"
b1100100 4"
b1111101000 $"
b1111101000 0"
1)"
b1 #"
b1 /"
1""
0q
16
b11111010000000000001100100 5
b11111010000000000001100100 F
b11111010000000000001100100 @"
b1000 D
12
#330000
02
#335000
b1111111111110000 *
b1111111111110000 u
b1100100 s
b1110011 r
b1100100 O
b1100100 ;"
b1110011 T
b1110011 7"
b1 N
b1 <"
1M
b1100100 L
b1100100 ="
b1100100 S
b1100100 8"
b1111101000 R
b1111101000 9"
0""
12
#340000
02
#345000
12
#350000
06
02
#355000
b11000001000000000000000000000000 p
1q
1-
b1111111111111111 *
b1111111111111111 u
b0 s
b0 r
b0 O
b0 ;"
b0 T
b0 7"
b0 N
b0 <"
0M
b0 L
b0 ="
b0 S
b0 8"
b0 R
b0 9"
b0 }
b0 ,"
b1100 V
13
b11000001000000000000000000000000 4
b11000001000000000000000000000000 E
b11000001000000000000000000000000 ?"
12
#360000
02
#365000
b11011110101011010000000000000011 '
b11011110101011010000000000000011 v
0-
12
#370000
02
#375000
12
#380000
b1111111111110000 *
b1111111111110000 u
b1100100 s
b1110011 r
b1100100 O
b1100100 ;"
b1110011 T
b1110011 7"
b1 N
b1 <"
1M
b1100100 L
b1100100 ="
b1100100 S
b1100100 8"
b1111101000 R
b1111101000 9"
b1 }
b1 ,"
b11111111 ;
b11111111 I
b1 :
b1 H
1<
03
02
#385000
b101 .
b101 m
0/
17
18
0<
12
#390000
02
#395000
b110 .
b110 m
07
18
12
#400000
02
#405000
b100 .
b100 m
1)
b1 +
b1 t
b10 ("
b10 3"
1""
b1 A
b1 K
1B
08
12
#410000
02
#415000
b10 N
b10 <"
1/
0)
0""
b1 }
b1 ,"
b1111 V
b0 U
13
b11110000101011010000000000000000 4
b11110000101011010000000000000000 E
b11110000101011010000000000000000 ?"
0B
12
#420000
02
#425000
b0 s
b0 r
b0 O
b0 ;"
b0 T
b0 7"
b0 N
b0 <"
0M
b0 L
b0 ="
b0 S
b0 8"
b0 R
b0 9"
b0 *
b0 u
b0 }
b0 ,"
b1100000011111111 '
b1100000011111111 v
1|
b0 p
b0 o
b0 n
0q
b0 z
b0 .
b0 m
b11111111 0
b11111111 k
b0 l
b0 w
0!
1#
1(
12
#430000
02
#435000
1#
1(
1|
b10000 >"
12
#440000
03
02
#445000
b11011110101011010000000000000001 '
b11011110101011010000000000000001 v
0#
0(
0|
b1111 }
b1111 ,"
b1 V
b1111 U
b10000 >"
13
b11111111100010000000100000000 4
b11111111100010000000100000000 E
b11111111100010000000100000000 ?"
12
#450000
02
#455000
b1111111111111111 *
b1111111111111111 u
b1100000000000001 '
b1100000000000001 v
b1 w
12
#460000
02
#465000
12
#470000
b1 }
b1 ,"
b100 V
b1 U
b1000001010110000000000001100100 4
b1000001010110000000000001100100 E
b1000001010110000000000001100100 ?"
13
02
#475000
b1000001010110000000000001100100 p
b1 o
b100 n
1q
1-
12
#480000
02
#485000
1-
12
#490000
16
b110010000000000000010100 5
b110010000000000000010100 F
b110010000000000000010100 @"
03
02
#495000
b1100000000000100 '
b1100000000000100 v
b101 &"
b101 1"
b10100 '"
b10100 2"
b1100100 ~
b1100100 -"
b1 ("
b1 3"
1)"
b10100 *"
b10100 4"
b1100100 !"
b1100100 ."
b11001000 $"
b11001000 0"
1""
0q
0-
12
#500000
02
#505000
b1111111100110111 *
b1111111100110111 u
b10100 s
b1100100 r
b10100 O
b10100 ;"
b1100100 T
b1100100 7"
b1 N
b1 <"
1M
b10100 L
b10100 ="
b1100100 S
b1100100 8"
b11001000 R
b11001000 9"
b101 P
b101 :"
0""
12
#510000
b1011 V
13
b10110001000000000000000000000000 4
b10110001000000000000000000000000 E
b10110001000000000000000000000000 ?"
06
02
#515000
b1100000000001011 '
b1100000000001011 v
1)
b10 ("
b10 3"
1""
12
#520000
02
#525000
b10 N
b10 <"
b10 ("
b10 3"
1)
1""
12
#530000
b1111111111111111 *
b1111111111111111 u
b0 s
b0 r
b0 O
b0 ;"
b0 T
b0 7"
b0 N
b0 <"
0M
b0 L
b0 ="
b0 S
b0 8"
b0 R
b0 9"
b0 P
b0 :"
b1111 }
b1111 ,"
b1 V
b1111 U
b11111111100100000000100000000 4
b11111111100100000000100000000 E
b11111111100100000000100000000 ?"
13
02
#535000
b1100000000000001 '
b1100000000000001 v
b10 w
0)
0""
12
#540000
02
#545000
12
#550000
b10 }
b10 ,"
b100 V
b10 U
b1000010001110000000000000110010 4
b1000010001110000000000000110010 E
b1000010001110000000000000110010 ?"
13
02
#555000
b1000010001110000000000000110010 p
b10 o
1q
1-
12
#560000
02
#565000
1-
12
#570000
16
b11001000000000000001010 5
b11001000000000000001010 F
b11001000000000000001010 @"
03
02
#575000
b1100000000000100 '
b1100000000000100 v
b1010 '"
b1010 2"
b110010 ~
b110010 -"
b1 ("
b1 3"
1)"
b1010 *"
b1010 4"
b110010 !"
b110010 ."
b1100100 $"
b1100100 0"
b11 &"
b11 1"
b10 #"
b10 /"
1""
0q
0-
12
#580000
02
#585000
b1111111111001101 *
b1111111111001101 u
b1010 s
b110010 r
b1010 O
b1010 ;"
b110010 T
b110010 7"
b1 N
b1 <"
1M
b1010 L
b1010 ="
b110010 S
b110010 8"
b1100100 R
b1100100 9"
b11 P
b11 :"
0""
12
#590000
b1011 V
13
b10110010000000000000000000000000 4
b10110010000000000000000000000000 E
b10110010000000000000000000000000 ?"
06
02
#595000
b1100000000001011 '
b1100000000001011 v
1)
b10 +
b10 t
b10 ("
b10 3"
1""
12
#600000
02
#605000
b10 N
b10 <"
b10 ("
b10 3"
1)
1""
12
#610000
b1111111111111111 *
b1111111111111111 u
b0 s
b0 r
b0 O
b0 ;"
b0 T
b0 7"
b0 N
b0 <"
0M
b0 L
b0 ="
b0 S
b0 8"
b0 R
b0 9"
b0 P
b0 :"
b0 }
b0 ,"
b1111 V
b0 U
b11110000101011010000000000000000 4
b11110000101011010000000000000000 E
b11110000101011010000000000000000 ?"
13
02
#615000
b0 *
b0 u
b1100000011111111 '
b1100000011111111 v
1|
b0 p
b0 o
b0 n
b0 w
1#
1(
0)
0""
12
#620000
02
#625000
1#
1(
1|
b10000 >"
12
#630000
03
02
#635000
b11011110101011010000000000000001 '
b11011110101011010000000000000001 v
0#
0(
0|
b1111 }
b1111 ,"
b1 V
b1111 U
b10000 >"
13
b11111111100000000000110000000 4
b11111111100000000000110000000 E
b11111111100000000000110000000 ?"
12
#640000
02
#645000
b1100000000000001 '
b1100000000000001 v
b10000000 l
12
#650000
02
#655000
12
#660000
b0 }
b0 ,"
b10 V
b0 U
b100000000000000000000000000000 4
b100000000000000000000000000000 E
b100000000000000000000000000000 ?"
13
02
#665000
b1100000000000010 '
b1100000000000010 v
1!
12
#670000
02
#675000
12
#680000
b11 }
b11 ,"
b1100 V
b11000000000000000000000000000000 4
b11000000000000000000000000000000 E
b11000000000000000000000000000000 ?"
b10000 ;
b10000 I
b11 :
b11 H
1<
13
02
#685000
b11 }
b11 ,"
b1 .
b1 m
0/
b1100000000001100 '
b1100000000001100 v
b0 '"
b0 2"
b0 ~
b0 -"
b11 ("
b11 3"
0)"
b0 *"
b0 4"
b0 !"
b0 ."
b0 $"
b0 0"
b0 &"
b0 1"
b11 #"
b11 /"
1""
1,
b11 1
b11 j
12
#690000
02
#695000
b11 N
b11 <"
b11 ("
b11 3"
1/
1,
1""
12
#700000
b0 N
b0 <"
b0 }
b0 ,"
03
02
#705000
0/
0,
0""
b11111111 ;
b11111111 I
b111 :
b111 H
1<
12
#710000
02
#715000
b11011110101011010000000000000011 '
b11011110101011010000000000000011 v
1/
b1111 V
13
b11110000101011010000000000000000 4
b11110000101011010000000000000000 E
b11110000101011010000000000000000 ?"
0<
12
#720000
02
#725000
b1100000011111111 '
b1100000011111111 v
1|
b1111 1
b1111 j
b0 .
b0 m
b0 l
0!
1#
1(
12
#730000
02
#735000
1#
1(
1|
b10000 >"
12
#740000
03
02
#745000
b11011110101011010000000000000001 '
b11011110101011010000000000000001 v
0#
0(
0|
b1111 }
b1111 ,"
b1 V
b1111 U
b10000 >"
13
b11111111100000000000100000000 4
b11111111100000000000100000000 E
b11111111100000000000100000000 ?"
12
#750000
02
#755000
b1100000000000001 '
b1100000000000001 v
12
#760000
02
#765000
12
#770000
b11 }
b11 ,"
b100 V
b11 U
b1000011011100000000000000000100 4
b1000011011100000000000000000100 E
b1000011011100000000000000000100 ?"
13
02
#775000
b1000011011100000000000000000100 p
b11 o
b100 n
1q
1-
12
#780000
02
#785000
1-
12
#790000
16
b11 5
b11 F
b11 @"
03
02
#795000
b1100000000000100 '
b1100000000000100 v
b11 '"
b11 2"
b100 ~
b100 -"
b100 !"
b100 ."
b11 *"
b11 4"
b111 &"
b111 1"
b1 ("
b1 3"
1""
0q
0-
12
#800000
02
#805000
b111 *
b111 u
b11 s
b100 r
b11 O
b11 ;"
b100 T
b100 7"
b1 N
b1 <"
b11 L
b11 ="
b100 S
b100 8"
b111 P
b111 :"
0""
12
#810000
b1011 V
13
b10110011000000000000000000000000 4
b10110011000000000000000000000000 E
b10110011000000000000000000000000 ?"
06
02
#815000
b1100000000001011 '
b1100000000001011 v
1)
b11 +
b11 t
b10 ("
b10 3"
1""
12
#820000
02
#825000
b10 N
b10 <"
b10 ("
b10 3"
1)
1""
12
#830000
b11 }
b11 ,"
b1100 V
b0 U
b11000000000000000000000000000000 4
b11000000000000000000000000000000 E
b11000000000000000000000000000000 ?"
b111 ;
b111 I
b11 :
b11 H
1<
13
02
#835000
b11 }
b11 ,"
b1100000000001100 '
b1100000000001100 v
b11 ("
b11 3"
1,
b11 1
b11 j
0)
1""
12
#840000
02
#845000
b11 N
b11 <"
b11 ("
b11 3"
1,
1""
12
#850000
b0 *
b0 u
b0 s
b0 r
b0 O
b0 ;"
b0 T
b0 7"
b0 N
b0 <"
b0 L
b0 ="
b0 S
b0 8"
b0 P
b0 :"
b0 }
b0 ,"
03
02
#855000
0,
0""
0<
12
#860000
b111 *
b111 u
b11 s
b100 r
b11 O
b11 ;"
b100 T
b100 7"
b11 N
b11 <"
b11 L
b11 ="
b100 S
b100 8"
b111 P
b111 :"
b11 }
b11 ,"
1C
02
#865000
b11 }
b11 ,"
b10 '"
b10 2"
1""
b1 z
12
#870000
b0 *
b0 u
b0 s
b0 r
b0 O
b0 ;"
b0 T
b0 7"
b0 N
b0 <"
b0 L
b0 ="
b0 S
b0 8"
b0 P
b0 :"
b0 }
b0 ,"
0C
02
#875000
0""
12
#880000
b111 *
b111 u
b10 s
b100 r
b10 O
b10 ;"
b100 T
b100 7"
b11 N
b11 <"
b11 L
b11 ="
b100 S
b100 8"
b111 P
b111 :"
b11 }
b11 ,"
1C
02
#885000
b11 }
b11 ,"
b1 '"
b1 2"
1""
b10 z
12
#890000
b0 *
b0 u
b0 s
b0 r
b0 O
b0 ;"
b0 T
b0 7"
b0 N
b0 <"
b0 L
b0 ="
b0 S
b0 8"
b0 P
b0 :"
b0 }
b0 ,"
0C
02
#895000
0""
12
#900000
b111 *
b111 u
b1 s
b100 r
b1 O
b1 ;"
b100 T
b100 7"
b11 N
b11 <"
b11 L
b11 ="
b100 S
b100 8"
b111 P
b111 :"
b11 }
b11 ,"
1C
02
#905000
b11 }
b11 ,"
b0 '"
b0 2"
1""
b11 z
12
#910000
b0 *
b0 u
b0 s
b0 r
b0 O
b0 ;"
b0 T
b0 7"
b0 N
b0 <"
b0 L
b0 ="
b0 S
b0 8"
b0 P
b0 :"
b0 }
b0 ,"
0C
02
#915000
0""
12
#920000
b111 *
b111 u
b100 r
b100 T
b100 7"
b11 N
b11 <"
b11 L
b11 ="
b100 S
b100 8"
b111 P
b111 :"
b11 }
b11 ,"
1C
02
#925000
b11 }
b11 ,"
b11 .
b11 m
0/
b100 z
12
#930000
b0 *
b0 u
b0 r
b0 T
b0 7"
b0 N
b0 <"
b0 L
b0 ="
b0 S
b0 8"
b0 P
b0 :"
b0 }
b0 ,"
0C
02
#935000
b11011110101011010000000000000011 '
b11011110101011010000000000000011 v
1/
b1111 V
13
b11110000101011010000000000000000 4
b11110000101011010000000000000000 E
b11110000101011010000000000000000 ?"
12
#940000
02
#945000
b1100000011111111 '
b1100000011111111 v
1|
b0 p
b0 o
b0 n
b0 z
b1111 1
b1111 j
b0 .
b0 m
1#
1(
12
#950000
02
#955000
1#
1(
1|
b10000 >"
12
#960000
03
02
#965000
0#
0(
0|
b10000 >"
12
