tb_hw_scheduler_top.vcd
$date
	Sat May  2 07:26:37 2026
$end
$version
	Icarus Verilog
$end
$timescale
	1ps
$end
$scope module tb_hw_scheduler_top $end
$var wire 1 ! scan_out $end
$var wire 1 " miso $end
$var wire 1 # irq_n $end
$var reg 1 $ clk $end
$var reg 1 % cs_n $end
$var reg 8 & ext_irq [7:0] $end
$var reg 1 ' mosi $end
$var reg 1 ( rst_n $end
$var reg 1 ) scan_en $end
$var reg 1 * scan_in $end
$var reg 1 + sclk $end
$scope module dut $end
$var wire 1 $ clk $end
$var wire 1 % cs_n $end
$var wire 8 , ext_irq [7:0] $end
$var wire 1 ' mosi $end
$var wire 1 - rst_ctrl_n $end
$var wire 1 . rst_glue_scan_n $end
$var wire 1 ( rst_n $end
$var wire 1 / rst_pq_n $end
$var wire 1 0 rst_spi_tm_n $end
$var wire 1 1 rst_sq_irq_n $end
$var wire 1 ) scan_en $end
$var wire 1 * scan_in $end
$var wire 1 + sclk $end
$var wire 1 2 timer_enable $end
$var wire 1 3 tick_pulse $end
$var wire 16 4 tick_divider [15:0] $end
$var wire 16 5 tick_counter [15:0] $end
$var wire 1 6 sq_wake_valid $end
$var wire 4 7 sq_wake_id [3:0] $end
$var wire 1 8 sq_flush $end
$var wire 1 9 sq_enqueue $end
$var wire 4 : sq_enq_id [3:0] $end
$var wire 32 ; sq_enq_counter [31:0] $end
$var wire 5 < sq_depth [4:0] $end
$var wire 256 = scan_parallel [255:0] $end
$var wire 1 ! scan_out $end
$var wire 32 > rsp_word [31:0] $end
$var wire 1 ? pq_head_valid $end
$var wire 16 @ pq_head_key [15:0] $end
$var wire 4 A pq_head_id [3:0] $end
$var wire 1 B pq_flush $end
$var wire 1 C pq_enqueue $end
$var wire 16 D pq_enq_key [15:0] $end
$var wire 4 E pq_enq_id [3:0] $end
$var wire 1 F pq_dequeue $end
$var wire 5 G pq_depth [4:0] $end
$var wire 1 " miso $end
$var wire 8 H irq_reason [7:0] $end
$var wire 1 I irq_pending $end
$var wire 1 # irq_n $end
$var wire 3 J irq_index [2:0] $end
$var wire 8 K fast_mask_r [7:0] $end
$var wire 1 L fast_irq $end
$var wire 4 M current_task [3:0] $end
$var wire 32 N cmd_word [31:0] $end
$var wire 1 O cmd_valid $end
$var reg 1 P ctrl_cmd_valid $end
$var reg 32 Q ctrl_cmd_word [31:0] $end
$var reg 32 R ctrl_cmd_word2 [31:0] $end
$var reg 1 S ctrl_cmd_word2_valid $end
$var reg 4 T pq_enq_id_r [3:0] $end
$var reg 16 U pq_enq_key_r [15:0] $end
$var reg 1 V pq_enqueue_r $end
$var reg 1 W sync_rst_d1 $end
$var reg 1 X sync_rst_d2a $end
$var reg 1 Y sync_rst_d2b $end
$var reg 1 Z sync_rst_d2c $end
$var reg 1 [ sync_rst_d2d_ctrl $end
$var reg 1 \ sync_rst_d2d_scan $end
$var reg 1 ] tick_pulse_r $end
$var reg 1 ^ waiting_word2 $end
$scope module u_ctrl $end
$var wire 1 $ clk $end
$var wire 1 P cmd_valid $end
$var wire 32 _ cmd_word [31:0] $end
$var wire 32 ` cmd_word2 [31:0] $end
$var wire 1 S cmd_word2_valid $end
$var wire 5 a pq_depth [4:0] $end
$var wire 1 - rst_n $end
$var wire 1 ] tick_pulse $end
$var wire 16 b tt_rd_wcet [15:0] $end
$var wire 1 c tt_rd_type $end
$var wire 3 d tt_rd_status [2:0] $end
$var wire 16 e tt_rd_remaining_wcet [15:0] $end
$var wire 4 f tt_rd_priority [3:0] $end
$var wire 1 g tt_rd_preemptable $end
$var wire 16 h tt_rd_period [15:0] $end
$var wire 16 i tt_rd_deadline [15:0] $end
$var wire 16 j tt_rd_abs_deadline [15:0] $end
$var wire 4 k task_id [3:0] $end
$var wire 1 6 sq_wake_valid $end
$var wire 4 l sq_wake_id [3:0] $end
$var wire 5 m sq_depth [4:0] $end
$var wire 1 ? pq_head_valid $end
$var wire 16 n pq_head_key [15:0] $end
$var wire 4 o pq_head_id [3:0] $end
$var wire 4 p opcode [3:0] $end
$var wire 1 I irq_pending $end
$var wire 1 L fast_irq $end
$var parameter 32 q ID_WIDTH $end
$var parameter 32 r KEY_WIDTH $end
$var parameter 32 s NUM_TASKS $end
$var parameter 4 t OP_ACTIVATE $end
$var parameter 4 u OP_CONFIG $end
$var parameter 4 v OP_CREATE $end
$var parameter 4 w OP_DELETE $end
$var parameter 4 x OP_MODIFY $end
$var parameter 4 y OP_NOP $end
$var parameter 4 z OP_QUERY $end
$var parameter 4 { OP_RESET $end
$var parameter 4 | OP_RESUME $end
$var parameter 4 } OP_RUN $end
$var parameter 4 ~ OP_SCAN $end
$var parameter 4 !" OP_SLEEP $end
$var parameter 4 "" OP_SSLEEP $end
$var parameter 4 #" OP_STOP $end
$var parameter 4 $" OP_SUSPEND $end
$var parameter 4 %" OP_YIELD $end
$var reg 4 &" current_task [3:0] $end
$var reg 8 '" fast_mask [7:0] $end
$var reg 8 (" flags_reg [7:0] $end
$var reg 1 # irq_n $end
$var reg 8 )" irq_reason [7:0] $end
$var reg 1 *" need_word2 $end
$var reg 4 +" pending_opcode [3:0] $end
$var reg 4 ," pending_task_id [3:0] $end
$var reg 32 -" pending_word1 [31:0] $end
$var reg 1 ." pending_word2 $end
$var reg 1 F pq_dequeue $end
$var reg 16 /" pq_eff_abs_deadline [15:0] $end
$var reg 16 0" pq_eff_remaining_wcet [15:0] $end
$var reg 4 1" pq_enq_id [3:0] $end
$var reg 16 2" pq_enq_key [15:0] $end
$var reg 1 C pq_enqueue $end
$var reg 1 B pq_flush $end
$var reg 32 3" rsp_word [31:0] $end
$var reg 2 4" sched_mode [1:0] $end
$var reg 32 5" sq_enq_counter [31:0] $end
$var reg 4 6" sq_enq_id [3:0] $end
$var reg 1 9 sq_enqueue $end
$var reg 1 8 sq_flush $end
$var reg 32 7" tick_count [31:0] $end
$var reg 16 8" tick_divider [15:0] $end
$var reg 1 2 timer_enable $end
$var reg 1 9" tt_clear_all $end
$var reg 4 :" tt_rd_id [3:0] $end
$var reg 4 ;" tt_rd_id_tick [3:0] $end
$var reg 16 <" tt_wr_abs_deadline [15:0] $end
$var reg 16 =" tt_wr_deadline [15:0] $end
$var reg 1 >" tt_wr_en $end
$var reg 4 ?" tt_wr_id [3:0] $end
$var reg 16 @" tt_wr_period [15:0] $end
$var reg 1 A" tt_wr_preemptable $end
$var reg 4 B" tt_wr_priority [3:0] $end
$var reg 16 C" tt_wr_remaining_wcet [15:0] $end
$var reg 3 D" tt_wr_status [2:0] $end
$var reg 1 E" tt_wr_type $end
$var reg 16 F" tt_wr_wcet [15:0] $end
$scope module u_task_table $end
$var wire 1 9" clear_all $end
$var wire 1 $ clk $end
$var wire 1 G" rd_en $end
$var wire 4 H" rd_id [3:0] $end
$var wire 1 - rst_n $end
$var wire 16 I" wr_abs_deadline [15:0] $end
$var wire 16 J" wr_deadline [15:0] $end
$var wire 1 >" wr_en $end
$var wire 4 K" wr_id [3:0] $end
$var wire 16 L" wr_period [15:0] $end
$var wire 1 A" wr_preemptable $end
$var wire 4 M" wr_priority [3:0] $end
$var wire 16 N" wr_remaining_wcet [15:0] $end
$var wire 3 O" wr_status [2:0] $end
$var wire 1 E" wr_type $end
$var wire 16 P" wr_wcet [15:0] $end
$var parameter 32 Q" ID_WIDTH $end
$var parameter 32 R" NUM_TASKS $end
$var reg 16 S" rd_abs_deadline [15:0] $end
$var reg 16 T" rd_deadline [15:0] $end
$var reg 16 U" rd_period [15:0] $end
$var reg 1 g rd_preemptable $end
$var reg 4 V" rd_priority [3:0] $end
$var reg 16 W" rd_remaining_wcet [15:0] $end
$var reg 3 X" rd_status [2:0] $end
$var reg 1 c rd_type $end
$var reg 16 Y" rd_wcet [15:0] $end
$var integer 32 Z" i [31:0] $end
$upscope $end
$scope task prep_tt_write $end
$upscope $end
$upscope $end
$scope module u_irq_ctrl $end
$var wire 1 $ clk $end
$var wire 8 [" ext_irq [7:0] $end
$var wire 8 \" fast_mask [7:0] $end
$var wire 1 1 rst_n $end
$var parameter 32 ]" NUM_IRQ $end
$var reg 1 L fast_irq $end
$var reg 3 ^" irq_index [2:0] $end
$var reg 1 I irq_pending $end
$var integer 32 _" i [31:0] $end
$upscope $end
$scope module u_pq $end
$var wire 1 $ clk $end
$var wire 3 `" depth [2:0] $end
$var wire 1 a" deq_valid $end
$var wire 1 F dequeue $end
$var wire 4 b" enq_id [3:0] $end
$var wire 16 c" enq_key [15:0] $end
$var wire 1 d" enq_valid $end
$var wire 1 V enqueue $end
$var wire 1 B flush $end
$var wire 4 e" head_id [3:0] $end
$var wire 16 f" head_key [15:0] $end
$var wire 1 ? head_valid $end
$var wire 1 / rst_n $end
$var wire 6 g" dbg_cell_valid [5:0] $end
$var wire 96 h" dbg_cell_key [95:0] $end
$var wire 24 i" dbg_cell_id [23:0] $end
$var parameter 32 j" DEPTH $end
$var parameter 32 k" ID_WIDTH $end
$var parameter 32 l" KEY_WIDTH $end
$var reg 3 m" depth_r [2:0] $end
$scope begin g_cells[0] $end
$var parameter 2 n" i $end
$scope module u_cell $end
$var wire 1 $ clk $end
$var wire 1 a" dequeue $end
$var wire 1 d" enqueue $end
$var wire 1 B flush $end
$var wire 1 o" in_beats_cell $end
$var wire 1 p" in_beats_right $end
$var wire 4 q" in_id [3:0] $end
$var wire 16 r" in_key [15:0] $end
$var wire 1 s" in_valid $end
$var wire 1 / rst_n $end
$var wire 1 t" right_valid $end
$var wire 16 u" right_key [15:0] $end
$var wire 4 v" right_id [3:0] $end
$var wire 1 w" pass_valid $end
$var wire 16 x" pass_key [15:0] $end
$var wire 4 y" pass_id [3:0] $end
$var parameter 32 z" ID_WIDTH $end
$var parameter 32 {" KEY_WIDTH $end
$var reg 4 |" cell_id [3:0] $end
$var reg 16 }" cell_key [15:0] $end
$var reg 1 ~" cell_valid $end
$upscope $end
$upscope $end
$scope begin g_cells[1] $end
$var parameter 2 !# i $end
$scope module u_cell $end
$var wire 1 $ clk $end
$var wire 1 a" dequeue $end
$var wire 1 d" enqueue $end
$var wire 1 B flush $end
$var wire 1 "# in_beats_cell $end
$var wire 1 ## in_beats_right $end
$var wire 1 / rst_n $end
$var wire 1 $# right_valid $end
$var wire 16 %# right_key [15:0] $end
$var wire 4 &# right_id [3:0] $end
$var wire 1 '# pass_valid $end
$var wire 16 (# pass_key [15:0] $end
$var wire 4 )# pass_id [3:0] $end
$var wire 1 *# in_valid $end
$var wire 16 +# in_key [15:0] $end
$var wire 4 ,# in_id [3:0] $end
$var parameter 32 -# ID_WIDTH $end
$var parameter 32 .# KEY_WIDTH $end
$var reg 4 /# cell_id [3:0] $end
$var reg 16 0# cell_key [15:0] $end
$var reg 1 1# cell_valid $end
$upscope $end
$upscope $end
$scope begin g_cells[2] $end
$var parameter 3 2# i $end
$scope module u_cell $end
$var wire 1 $ clk $end
$var wire 1 a" dequeue $end
$var wire 1 d" enqueue $end
$var wire 1 B flush $end
$var wire 1 3# in_beats_cell $end
$var wire 1 4# in_beats_right $end
$var wire 1 / rst_n $end
$var wire 1 5# right_valid $end
$var wire 16 6# right_key [15:0] $end
$var wire 4 7# right_id [3:0] $end
$var wire 1 8# pass_valid $end
$var wire 16 9# pass_key [15:0] $end
$var wire 4 :# pass_id [3:0] $end
$var wire 1 ;# in_valid $end
$var wire 16 <# in_key [15:0] $end
$var wire 4 =# in_id [3:0] $end
$var parameter 32 ># ID_WIDTH $end
$var parameter 32 ?# KEY_WIDTH $end
$var reg 4 @# cell_id [3:0] $end
$var reg 16 A# cell_key [15:0] $end
$var reg 1 B# cell_valid $end
$upscope $end
$upscope $end
$scope begin g_cells[3] $end
$var parameter 3 C# i $end
$scope module u_cell $end
$var wire 1 $ clk $end
$var wire 1 a" dequeue $end
$var wire 1 d" enqueue $end
$var wire 1 B flush $end
$var wire 1 D# in_beats_cell $end
$var wire 1 E# in_beats_right $end
$var wire 1 / rst_n $end
$var wire 1 F# right_valid $end
$var wire 16 G# right_key [15:0] $end
$var wire 4 H# right_id [3:0] $end
$var wire 1 I# pass_valid $end
$var wire 16 J# pass_key [15:0] $end
$var wire 4 K# pass_id [3:0] $end
$var wire 1 L# in_valid $end
$var wire 16 M# in_key [15:0] $end
$var wire 4 N# in_id [3:0] $end
$var parameter 32 O# ID_WIDTH $end
$var parameter 32 P# KEY_WIDTH $end
$var reg 4 Q# cell_id [3:0] $end
$var reg 16 R# cell_key [15:0] $end
$var reg 1 S# cell_valid $end
$upscope $end
$upscope $end
$scope begin g_cells[4] $end
$var parameter 4 T# i $end
$scope module u_cell $end
$var wire 1 $ clk $end
$var wire 1 a" dequeue $end
$var wire 1 d" enqueue $end
$var wire 1 B flush $end
$var wire 1 U# in_beats_cell $end
$var wire 1 V# in_beats_right $end
$var wire 1 / rst_n $end
$var wire 1 W# right_valid $end
$var wire 16 X# right_key [15:0] $end
$var wire 4 Y# right_id [3:0] $end
$var wire 1 Z# pass_valid $end
$var wire 16 [# pass_key [15:0] $end
$var wire 4 \# pass_id [3:0] $end
$var wire 1 ]# in_valid $end
$var wire 16 ^# in_key [15:0] $end
$var wire 4 _# in_id [3:0] $end
$var parameter 32 `# ID_WIDTH $end
$var parameter 32 a# KEY_WIDTH $end
$var reg 4 b# cell_id [3:0] $end
$var reg 16 c# cell_key [15:0] $end
$var reg 1 d# cell_valid $end
$upscope $end
$upscope $end
$scope begin g_cells[5] $end
$var parameter 4 e# i $end
$scope module u_cell $end
$var wire 1 $ clk $end
$var wire 1 a" dequeue $end
$var wire 1 d" enqueue $end
$var wire 1 B flush $end
$var wire 1 f# in_beats_cell $end
$var wire 1 g# in_beats_right $end
$var wire 4 h# right_id [3:0] $end
$var wire 16 i# right_key [15:0] $end
$var wire 1 j# right_valid $end
$var wire 1 / rst_n $end
$var wire 1 k# pass_valid $end
$var wire 16 l# pass_key [15:0] $end
$var wire 4 m# pass_id [3:0] $end
$var wire 1 n# in_valid $end
$var wire 16 o# in_key [15:0] $end
$var wire 4 p# in_id [3:0] $end
$var parameter 32 q# ID_WIDTH $end
$var parameter 32 r# KEY_WIDTH $end
$var reg 4 s# cell_id [3:0] $end
$var reg 16 t# cell_key [15:0] $end
$var reg 1 u# cell_valid $end
$upscope $end
$upscope $end
$scope begin g_dbg[0] $end
$var parameter 2 v# k $end
$upscope $end
$scope begin g_dbg[1] $end
$var parameter 2 w# k $end
$upscope $end
$scope begin g_dbg[2] $end
$var parameter 3 x# k $end
$upscope $end
$scope begin g_dbg[3] $end
$var parameter 3 y# k $end
$upscope $end
$scope begin g_dbg[4] $end
$var parameter 4 z# k $end
$upscope $end
$scope begin g_dbg[5] $end
$var parameter 4 {# k $end
$upscope $end
$scope begin g_in[1] $end
$var parameter 2 |# i $end
$upscope $end
$scope begin g_in[2] $end
$var parameter 3 }# i $end
$upscope $end
$scope begin g_in[3] $end
$var parameter 3 ~# i $end
$upscope $end
$scope begin g_in[4] $end
$var parameter 4 !$ i $end
$upscope $end
$scope begin g_in[5] $end
$var parameter 4 "$ i $end
$upscope $end
$scope begin g_right[0] $end
$var parameter 2 #$ i $end
$upscope $end
$scope begin g_right[1] $end
$var parameter 2 $$ i $end
$upscope $end
$scope begin g_right[2] $end
$var parameter 3 %$ i $end
$upscope $end
$scope begin g_right[3] $end
$var parameter 3 &$ i $end
$upscope $end
$scope begin g_right[4] $end
$var parameter 4 '$ i $end
$upscope $end
$upscope $end
$scope module u_scan $end
$var wire 1 $ clk $end
$var wire 256 ($ parallel_in [255:0] $end
$var wire 1 . rst_n $end
$var wire 1 ) scan_en $end
$var wire 1 * scan_in $end
$var wire 1 ! scan_out $end
$var parameter 32 )$ WIDTH $end
$var reg 256 *$ scan_reg [255:0] $end
$upscope $end
$scope module u_spi $end
$var wire 1 $ clk $end
$var wire 1 +$ cs_fall $end
$var wire 1 % cs_n $end
$var wire 1 ,$ cs_rise $end
$var wire 1 ' mosi $end
$var wire 32 -$ rsp_word [31:0] $end
$var wire 1 0 rst_n $end
$var wire 1 + sclk $end
$var wire 1 .$ sclk_fall $end
$var wire 1 /$ sclk_rise $end
$var reg 6 0$ bit_count [5:0] $end
$var reg 1 O cmd_valid $end
$var reg 32 1$ cmd_word [31:0] $end
$var reg 1 2$ cs_d $end
$var reg 1 " miso $end
$var reg 32 3$ rx_shift [31:0] $end
$var reg 1 4$ sclk_d $end
$var reg 32 5$ tx_shift [31:0] $end
$upscope $end
$scope module u_sq $end
$var wire 1 $ clk $end
$var wire 32 6$ enq_count [31:0] $end
$var wire 4 7$ enq_id [3:0] $end
$var wire 1 9 enqueue $end
$var wire 1 8 flush $end
$var wire 1 1 rst_n $end
$var wire 1 ] tick $end
$var wire 5 8$ depth [4:0] $end
$var parameter 32 9$ CNT_WIDTH $end
$var parameter 32 :$ DEPTH $end
$var parameter 32 ;$ ID_WIDTH $end
$var reg 5 <$ depth_r [4:0] $end
$var reg 5 =$ depth_work [4:0] $end
$var reg 4 >$ wake_id [3:0] $end
$var reg 1 6 wake_valid $end
$var integer 32 ?$ i [31:0] $end
$var integer 32 @$ pos [31:0] $end
$upscope $end
$scope module u_timer $end
$var wire 1 $ clk $end
$var wire 1 2 enable $end
$var wire 1 0 rst_n $end
$var wire 16 A$ tick_divider [15:0] $end
$var reg 16 B$ tick_counter [15:0] $end
$var reg 1 3 tick_pulse $end
$upscope $end
$upscope $end
$scope begin scan_test $end
$var integer 32 C$ sc_i [31:0] $end
$upscope $end
$scope begin wait_ext_irq $end
$var reg 1 D$ seen_ext_irq $end
$upscope $end
$scope task spi_send32 $end
$var reg 32 E$ w [31:0] $end
$var integer 32 F$ i [31:0] $end
$upscope $end
$scope task wait_irq_assert $end
$var reg 1 G$ seen $end
$var integer 32 H$ i [31:0] $end
$upscope $end
$upscope $end
$enddefinitions $end
$comment Show the parameter values. $end
$dumpall
b100 ;$
b10000 :$
b100000 9$
b100000000 )$
b100 '$
b11 &$
b10 %$
b1 $$
b0 #$
b101 "$
b100 !$
b11 ~#
b10 }#
b1 |#
b101 {#
b100 z#
b11 y#
b10 x#
b1 w#
b0 v#
b10000 r#
b100 q#
b101 e#
b10000 a#
b100 `#
b100 T#
b10000 P#
b100 O#
b11 C#
b10000 ?#
b100 >#
b10 2#
b10000 .#
b100 -#
b1 !#
b10000 {"
b100 z"
b0 n"
b10000 l"
b100 k"
b110 j"
b1000 ]"
b10000 R"
b100 Q"
b1001 %"
b1010 $"
b11 #"
b1000 ""
b111 !"
b1110 ~
b10 }
b1011 |
b1111 {
b1101 z
b0 y
b110 x
b101 w
b100 v
b1 u
b1100 t
b10000 s
b10000 r
b100 q
$end
#0
$dumpvars
bx H$
xG$
bx F$
bx E$
xD$
bx C$
bx B$
bx A$
bx @$
bx ?$
bx >$
bx =$
bx <$
bx 8$
bx 7$
bx 6$
bx 5$
x4$
bx 3$
x2$
bx 1$
bx 0$
0/$
x.$
bx -$
x,$
0+$
bx *$
b0xxxxxxxxxxxxxxxxxxxxxxxxxxxxxxxxxxxxxxxxxxxxxxxx00xxxxxxxx ($
xu#
bx t#
bx s#
bx p#
bx o#
xn#
bx m#
bx l#
xk#
0j#
b0 i#
b0 h#
xg#
xf#
xd#
bx c#
bx b#
bx _#
bx ^#
x]#
bx \#
bx [#
xZ#
bx Y#
bx X#
xW#
xV#
xU#
xS#
bx R#
bx Q#
bx N#
bx M#
xL#
bx K#
bx J#
xI#
bx H#
bx G#
xF#
xE#
xD#
xB#
bx A#
bx @#
bx =#
bx <#
x;#
bx :#
bx 9#
x8#
bx 7#
bx 6#
x5#
x4#
x3#
x1#
bx 0#
bx /#
bx ,#
bx +#
x*#
bx )#
bx (#
x'#
bx &#
bx %#
x$#
x##
x"#
x~"
bx }"
bx |"
bx y"
bx x"
xw"
bx v"
bx u"
xt"
xs"
bx r"
bx q"
xp"
xo"
bx m"
bx i"
bx h"
bx g"
bx f"
bx e"
xd"
bx c"
bx b"
xa"
bx `"
bx _"
bx ^"
bx \"
b0 ["
bx Z"
bx Y"
bx X"
bx W"
bx V"
bx U"
bx T"
bx S"
bx P"
bx O"
bx N"
bx M"
bx L"
bx K"
bx J"
bx I"
bx H"
1G"
bx F"
xE"
bx D"
bx C"
bx B"
xA"
bx @"
bx ?"
x>"
bx ="
bx <"
bx ;"
bx :"
x9"
bx 8"
bx 7"
bx 6"
bx 5"
bx 4"
bx 3"
bx 2"
bx 1"
bx 0"
bx /"
x."
bx -"
bx ,"
bx +"
x*"
bx )"
bx ("
bx '"
bx &"
bx p
bx o
bx n
bx m
bx l
bx k
bx j
bx i
bx h
xg
bx f
bx e
bx d
xc
bx b
b0xxx a
bx `
bx _
x^
x]
x\
x[
xZ
xY
xX
xW
xV
bx U
bx T
xS
bx R
bx Q
xP
xO
bx N
bx M
xL
bx K
bx J
xI
bx H
b0xxx G
xF
bx E
bx D
xC
xB
bx A
bx @
x?
bx >
b0xxxxxxxxxxxxxxxxxxxxxxxxxxxxxxxxxxxxxxxxxxxxxxxx00xxxxxxxx =
bx <
bx ;
bx :
x9
x8
bx 7
x6
bx 5
bx 4
x3
x2
x1
x0
x/
x.
x-
b0 ,
0+
0*
0)
0(
0'
b0 &
1%
0$
x#
x"
x!
$end
#5000
b0xxxx D
b0xxxx 2"
b1111 ;"
b0 C"
b0 N"
b0 <"
b0 I"
b0 D"
b0 O"
0A"
0E"
b0 F"
b0 P"
b0 ="
b0 J"
b0 @"
b0 L"
b0 B"
b0 M"
b0 ?"
b0 K"
b0 -"
b0 ,"
b0 +"
0."
b0 7"
b11111111 K
b11111111 '"
b11111111 \"
b1111 M
b1111 &"
b0 >
b0 3"
b0 -$
b0 H
b0 )"
1#
02
b1100100 4
b1100100 8"
b1100100 A$
b0 ("
b0 4"
b0 7
b0 l
b0 >$
b0 <
b0 m
b0 8$
b0 <$
b0 G
b0 a
b0 `"
b0 m"
0W#
0u#
b0 X#
b0 t#
b0 Y#
b0 s#
0F#
0d#
b0 G#
b0 c#
b0 H#
b0 b#
05#
0S#
b0 6#
b0 R#
b0 7#
b0 Q#
0$#
0B#
b0 %#
b0 A#
b0 &#
b0 @#
0t"
01#
b0 u"
b0 0#
b0 v"
b0 /#
b0 g"
0?
0~"
b0 h"
b0 @
b0 n
b0 f"
b0 }"
b0 i"
b0 A
b0 o
b0 e"
b0 |"
b11110000000000000000000000000000000000000000000000 =
b11110000000000000000000000000000000000000000000000 ($
b0 5
b0 B$
0"
b0 0$
b0 N
b0 1$
b0 5$
b0 3$
0a"
0!
0,$
0.$
b10000 Z"
b10000 ?$
0*"
18
09
1B
0F
0C
19"
0>"
06
b0 J
b0 ^"
0L
0I
b0 *$
0O
12$
04$
03
0.
0\
0-
0[
01
0Z
0/
0Y
00
0X
0W
0S
0P
b1000 _"
1$
#10000
0$
#15000
b0 l#
b0 m#
b0 o#
b0 [#
b0 p#
b0 \#
b0 ^#
b0 J#
b0 _#
b0 K#
b0 M#
b0 9#
b0 N#
b0 :#
b0 D
b0 2"
b0 0"
b0 /"
b0 <#
b0 (#
b0 =#
b0 )#
b0 e
b0 W"
b0 j
b0 S"
b0 d
b0 X"
0g
0c
b0 b
b0 Y"
b0 i
b0 T"
b0 h
b0 U"
b0 f
b0 V"
0##
0"#
04#
03#
0E#
0D#
0V#
0U#
0g#
0f#
b0 :"
b0 H"
b0 +#
b0 x"
b0 ,#
b0 y"
0o"
0p"
0*#
0w"
0;#
0'#
0L#
08#
0]#
0I#
0n#
0Z#
0k#
b0 p
b0 k
0s"
0d"
b0 R
b0 `
b0 Q
b0 _
0^
b0 r"
b0 U
b0 c"
b0 q"
b0 T
b0 b"
0V
0]
b10000 Z"
b10000 ?$
1$
#20000
0$
#25000
b10000 Z"
b10000 ?$
1$
#30000
0$
#35000
1W
b10000 Z"
b10000 ?$
1(
1$
#40000
0$
#45000
1.
1\
1-
1[
11
1Z
1/
1Y
10
1X
b10000 Z"
b10000 ?$
b10000011000110000000110000000 E$
1$
#50000
1+$
b11111 F$
0%
0$
#55000
bx m#
bx p#
bx \#
bx _#
bx K#
bx N#
bx :#
bx =#
bx )#
bx ,#
bx y"
0+$
08
0B
09"
b11110000000000000000000000000000000000000000000000 *$
02$
b11110000000000000000000000000000011001000000000000 =
b11110000000000000000000000000000011001000000000000 ($
b1100100 5
b1100100 B$
bx q"
bx T
bx b"
b10000 Z"
b10000 ?$
b1000 _"
1$
#60000
1/$
1+
0$
#65000
0/$
b11110000000000000000000000000000011001000000000000 *$
b1 0$
14$
b1000 _"
b0 =$
1$
#70000
1.$
0+
0$
#75000
0.$
04$
b1000 _"
b11110 F$
1$
#80000
1/$
1+
0$
#85000
0/$
b10 0$
14$
b1000 _"
1$
#90000
1.$
0+
0$
#95000
0.$
04$
b1000 _"
b11101 F$
1$
#100000
1/$
1+
0$
#105000
0/$
b11 0$
14$
b1000 _"
1$
#110000
1.$
0+
0$
#115000
0.$
04$
b1000 _"
1'
b11100 F$
1$
#120000
1/$
1+
0$
#125000
0/$
b100 0$
b1 3$
14$
b1000 _"
1$
#130000
1.$
0+
0$
#135000
0.$
04$
b1000 _"
0'
b11011 F$
1$
#140000
1/$
1+
0$
#145000
0/$
b101 0$
b10 3$
14$
b1000 _"
1$
#150000
1.$
0+
0$
#155000
0.$
04$
b1000 _"
b11010 F$
1$
#160000
1/$
1+
0$
#165000
0/$
b110 0$
b100 3$
14$
b1000 _"
1$
#170000
1.$
0+
0$
#175000
0.$
04$
b1000 _"
b11001 F$
1$
#180000
1/$
1+
0$
#185000
0/$
b111 0$
b1000 3$
14$
b1000 _"
1$
#190000
1.$
0+
0$
#195000
0.$
04$
b1000 _"
b11000 F$
1$
#200000
1/$
1+
0$
#205000
0/$
b1000 0$
b10000 3$
14$
b1000 _"
1$
#210000
1.$
0+
0$
#215000
0.$
04$
b1000 _"
b10111 F$
1$
#220000
1/$
1+
0$
#225000
0/$
b1001 0$
b100000 3$
14$
b1000 _"
1$
#230000
1.$
0+
0$
#235000
0.$
04$
b1000 _"
1'
b10110 F$
1$
#240000
1/$
1+
0$
#245000
0/$
b1010 0$
b1000001 3$
14$
b1000 _"
1$
#250000
1.$
0+
0$
#255000
0.$
04$
b1000 _"
b10101 F$
1$
#260000
1/$
1+
0$
#265000
0/$
b1011 0$
b10000011 3$
14$
b1000 _"
1$
#270000
1.$
0+
0$
#275000
0.$
04$
b1000 _"
0'
b10100 F$
1$
#280000
1/$
1+
0$
#285000
0/$
b1100 0$
b100000110 3$
14$
b1000 _"
1$
#290000
1.$
0+
0$
#295000
0.$
04$
b1000 _"
b10011 F$
1$
#300000
1/$
1+
0$
#305000
0/$
b1101 0$
b1000001100 3$
14$
b1000 _"
1$
#310000
1.$
0+
0$
#315000
0.$
04$
b1000 _"
b10010 F$
1$
#320000
1/$
1+
0$
#325000
0/$
b1110 0$
b10000011000 3$
14$
b1000 _"
1$
#330000
1.$
0+
0$
#335000
0.$
04$
b1000 _"
1'
b10001 F$
1$
#340000
1/$
1+
0$
#345000
0/$
b1111 0$
b100000110001 3$
14$
b1000 _"
1$
#350000
1.$
0+
0$
#355000
0.$
04$
b1000 _"
b10000 F$
1$
#360000
1/$
1+
0$
#365000
0/$
b10000 0$
b1000001100011 3$
14$
b1000 _"
1$
#370000
1.$
0+
0$
#375000
0.$
04$
b1000 _"
0'
b1111 F$
1$
#380000
1/$
1+
0$
#385000
0/$
b10001 0$
b10000011000110 3$
14$
b1000 _"
1$
#390000
1.$
0+
0$
#395000
0.$
04$
b1000 _"
b1110 F$
1$
#400000
1/$
1+
0$
#405000
0/$
b10010 0$
b100000110001100 3$
14$
b1000 _"
1$
#410000
1.$
0+
0$
#415000
0.$
04$
b1000 _"
b1101 F$
1$
#420000
1/$
1+
0$
#425000
0/$
b10011 0$
b1000001100011000 3$
14$
b1000 _"
1$
#430000
1.$
0+
0$
#435000
0.$
04$
b1000 _"
b1100 F$
1$
#440000
1/$
1+
0$
#445000
0/$
b10100 0$
b10000011000110000 3$
14$
b1000 _"
1$
#450000
1.$
0+
0$
#455000
0.$
04$
b1000 _"
b1011 F$
1$
#460000
1/$
1+
0$
#465000
0/$
b10101 0$
b100000110001100000 3$
14$
b1000 _"
1$
#470000
1.$
0+
0$
#475000
0.$
04$
b1000 _"
b1010 F$
1$
#480000
1/$
1+
0$
#485000
0/$
b10110 0$
b1000001100011000000 3$
14$
b1000 _"
1$
#490000
1.$
0+
0$
#495000
0.$
04$
b1000 _"
b1001 F$
1$
#500000
1/$
1+
0$
#505000
0/$
b10111 0$
b10000011000110000000 3$
14$
b1000 _"
1$
#510000
1.$
0+
0$
#515000
0.$
04$
b1000 _"
1'
b1000 F$
1$
#520000
1/$
1+
0$
#525000
0/$
b11000 0$
b100000110001100000001 3$
14$
b1000 _"
1$
#530000
1.$
0+
0$
#535000
0.$
04$
b1000 _"
b111 F$
1$
#540000
1/$
1+
0$
#545000
0/$
b11001 0$
b1000001100011000000011 3$
14$
b1000 _"
1$
#550000
1.$
0+
0$
#555000
0.$
04$
b1000 _"
0'
b110 F$
1$
#560000
1/$
1+
0$
#565000
0/$
b11010 0$
b10000011000110000000110 3$
14$
b1000 _"
1$
#570000
1.$
0+
0$
#575000
0.$
04$
b1000 _"
b101 F$
1$
#580000
1/$
1+
0$
#585000
0/$
b11011 0$
b100000110001100000001100 3$
14$
b1000 _"
1$
#590000
1.$
0+
0$
#595000
0.$
04$
b1000 _"
b100 F$
1$
#600000
1/$
1+
0$
#605000
0/$
b11100 0$
b1000001100011000000011000 3$
14$
b1000 _"
1$
#610000
1.$
0+
0$
#615000
0.$
04$
b1000 _"
b11 F$
1$
#620000
1/$
1+
0$
#625000
0/$
b11101 0$
b10000011000110000000110000 3$
14$
b1000 _"
1$
#630000
1.$
0+
0$
