tb_sleep_queue.vcd
$date
	Sat May  2 07:26:37 2026
$end
$version
	Icarus Verilog
$end
$timescale
	1ps
$end
$scope module tb_sleep_queue $end
$var wire 1 ! wake_valid $end
$var wire 4 " wake_id [3:0] $end
$var wire 5 # depth [4:0] $end
$var reg 1 $ clk $end
$var reg 32 % enq_count [31:0] $end
$var reg 4 & enq_id [3:0] $end
$var reg 1 ' enqueue $end
$var reg 4 ( first_wake [3:0] $end
$var reg 1 ) flush $end
$var reg 5 * prev_depth [4:0] $end
$var reg 1 + rst_n $end
$var reg 4 , second_wake [3:0] $end
$var reg 1 - tick $end
$var integer 32 . wakes [31:0] $end
$scope module dut $end
$var wire 1 $ clk $end
$var wire 5 / depth [4:0] $end
$var wire 32 0 enq_count [31:0] $end
$var wire 4 1 enq_id [3:0] $end
$var wire 1 ' enqueue $end
$var wire 1 ) flush $end
$var wire 1 + rst_n $end
$var wire 1 - tick $end
$var parameter 32 2 CNT_WIDTH $end
$var parameter 32 3 DEPTH $end
$var parameter 32 4 ID_WIDTH $end
$var reg 5 5 depth_r [4:0] $end
$var reg 5 6 depth_work [4:0] $end
$var reg 4 7 wake_id [3:0] $end
$var reg 1 ! wake_valid $end
$var integer 32 8 i [31:0] $end
$var integer 32 9 pos [31:0] $end
$upscope $end
$scope begin multi_expiry $end
$var reg 4 : me_first [3:0] $end
$var reg 4 ; me_second [3:0] $end
$var integer 32 < me_wakes [31:0] $end
$upscope $end
$scope task do_enq $end
$var reg 16 = count [15:0] $end
$var reg 4 > id [3:0] $end
$upscope $end
$scope task do_tick $end
$upscope $end
$upscope $end
$enddefinitions $end
$comment Show the parameter values. $end
$dumpall
b100 4
b10000 3
b100000 2
$end
#0
$dumpvars
bx >
bx =
bx <
bx ;
bx :
bx 9
bx 8
bx 7
bx 6
bx 5
b0 1
b0 0
bx /
b0 .
0-
b0 ,
0+
b0 *
0)
b0 (
0'
b0 &
b0 %
0$
bx #
bx "
x!
$end
#5000
b0 "
b0 7
0!
b0 #
b0 /
b0 5
b10000 8
1$
#10000
0$
#15000
b10000 8
1$
#20000
0$
#25000
b0 6
1+
1$
#30000
0$
#35000
b1 #
b1 /
b1 5
b1 6
b0 8
b0 9
1'
b11 %
b11 0
b1 &
b1 1
b11 =
b1 >
1$
#40000
0$
#45000
b1 *
0'
1$
#50000
0$
#55000
b10 #
b10 /
b10 5
b10 6
b0 8
b0 9
1'
b1 %
b1 0
b10 &
b10 1
b1 =
b10 >
1$
#60000
0$
#65000
b10 *
0'
1$
#70000
0$
#75000
b10 "
b10 7
1!
b1 9
b10 6
b0 8
1-
1'
b10 %
b10 0
b11 &
b11 1
1$
#80000
0$
#85000
0!
0-
0'
1$
#90000
0$
#95000
b0 "
b0 7
b0 #
b0 /
b0 5
b10000 8
1)
1$
#100000
0$
#105000
b0 *
b0 6
0)
1$
#110000
0$
#115000
b1 #
b1 /
b1 5
b1 6
b0 8
b0 9
1'
b11 %
b11 0
b1 &
b1 1
b11 =
b1 >
1$
#120000
0$
#125000
b1 *
0'
1$
#130000
0$
#135000
b10 #
b10 /
b10 5
b10 6
b0 8
b0 9
1'
b1 %
b1 0
b10 &
b10 1
b1 =
b10 >
1$
#140000
0$
#145000
b10 *
0'
1$
#150000
0$
#155000
b1 #
b1 /
b1 5
b10 "
b10 7
1!
b1 6
b1111 8
1-
1$
#160000
0$
#165000
0!
b1 *
0-
b10 (
b1 .
1$
#170000
0$
#175000
b10000 8
1-
1$
#180000
0$
#185000
0-
1$
#190000
0$
#195000
b0 #
b0 /
b0 5
b1 "
b1 7
1!
b0 6
b1111 8
1-
1$
#200000
0$
#205000
0!
b0 *
0-
b1 ,
b10 .
1$
#210000
0$
#215000
b0 "
b0 7
b10000 8
1)
b0 ;
b0 :
b0 <
1$
#220000
0$
#225000
0)
1$
#230000
0$
#235000
b1 #
b1 /
b1 5
b1 6
b0 8
1'
b100 &
b100 1
b100 >
1$
#240000
0$
#245000
b1 *
0'
1$
#250000
0$
#255000
b10 #
b10 /
b10 5
b10 6
b0 8
b1 9
1'
b101 &
b101 1
b101 >
1$
#260000
0$
#265000
b10 *
0'
1$
#270000
0$
#275000
b1 #
b1 /
b1 5
b100 "
b100 7
1!
b1 6
b1111 8
1-
1$
#280000
0$
#285000
b0 #
b0 /
b0 5
b101 "
b101 7
1!
b1 *
b0 6
b1111 8
0-
b100 :
b1 <
1$
#290000
0$
#295000
0!
b0 *
b101 ;
b10 <
1$
