verif/sim/tb_priority_queue.vcd
$date
	Sat May  2 11:39:30 2026
$end
$version
	Icarus Verilog
$end
$timescale
	1ps
$end
$scope module tb_priority_queue $end
$var wire 1 ! head_valid $end
$var wire 16 " head_key [15:0] $end
$var wire 4 # head_id [3:0] $end
$var wire 5 $ depth [4:0] $end
$var reg 1 % clk $end
$var reg 1 & dequeue $end
$var reg 4 ' enq_id [3:0] $end
$var reg 16 ( enq_key [15:0] $end
$var reg 1 ) enqueue $end
$var reg 1 * flush $end
$var reg 1 + rst_n $end
$scope module dut $end
$var wire 1 % clk $end
$var wire 5 , depth [4:0] $end
$var wire 1 - deq_valid $end
$var wire 1 & dequeue $end
$var wire 4 . enq_id [3:0] $end
$var wire 16 / enq_key [15:0] $end
$var wire 1 0 enq_valid $end
$var wire 1 ) enqueue $end
$var wire 1 * flush $end
$var wire 4 1 head_id [3:0] $end
$var wire 16 2 head_key [15:0] $end
$var wire 1 ! head_valid $end
$var wire 1 + rst_n $end
$var wire 16 3 dbg_cell_valid [15:0] $end
$var wire 256 4 dbg_cell_key [255:0] $end
$var wire 64 5 dbg_cell_id [63:0] $end
$var parameter 32 6 DEPTH $end
$var parameter 32 7 ID_WIDTH $end
$var parameter 32 8 KEY_WIDTH $end
$var reg 5 9 depth_r [4:0] $end
$scope begin g_cells[0] $end
$var parameter 2 : i $end
$scope module u_cell $end
$var wire 1 % clk $end
$var wire 1 - dequeue $end
$var wire 1 0 enqueue $end
$var wire 1 * flush $end
$var wire 1 ; in_beats_cell $end
$var wire 1 < in_beats_right $end
$var wire 4 = in_id [3:0] $end
$var wire 16 > in_key [15:0] $end
$var wire 1 ? in_valid $end
$var wire 1 + rst_n $end
$var wire 1 @ right_valid $end
$var wire 16 A right_key [15:0] $end
$var wire 4 B right_id [3:0] $end
$var wire 1 C pass_valid $end
$var wire 16 D pass_key [15:0] $end
$var wire 4 E pass_id [3:0] $end
$var parameter 32 F ID_WIDTH $end
$var parameter 32 G KEY_WIDTH $end
$var reg 4 H cell_id [3:0] $end
$var reg 16 I cell_key [15:0] $end
$var reg 1 J cell_valid $end
$upscope $end
$upscope $end
$scope begin g_cells[1] $end
$var parameter 2 K i $end
$scope module u_cell $end
$var wire 1 % clk $end
$var wire 1 - dequeue $end
$var wire 1 0 enqueue $end
$var wire 1 * flush $end
$var wire 1 L in_beats_cell $end
$var wire 1 M in_beats_right $end
$var wire 1 + rst_n $end
$var wire 1 N right_valid $end
$var wire 16 O right_key [15:0] $end
$var wire 4 P right_id [3:0] $end
$var wire 1 Q pass_valid $end
$var wire 16 R pass_key [15:0] $end
$var wire 4 S pass_id [3:0] $end
$var wire 1 T in_valid $end
$var wire 16 U in_key [15:0] $end
$var wire 4 V in_id [3:0] $end
$var parameter 32 W ID_WIDTH $end
$var parameter 32 X KEY_WIDTH $end
$var reg 4 Y cell_id [3:0] $end
$var reg 16 Z cell_key [15:0] $end
$var reg 1 [ cell_valid $end
$upscope $end
$upscope $end
$scope begin g_cells[2] $end
$var parameter 3 \ i $end
$scope module u_cell $end
$var wire 1 % clk $end
$var wire 1 - dequeue $end
$var wire 1 0 enqueue $end
$var wire 1 * flush $end
$var wire 1 ] in_beats_cell $end
$var wire 1 ^ in_beats_right $end
$var wire 1 + rst_n $end
$var wire 1 _ right_valid $end
$var wire 16 ` right_key [15:0] $end
$var wire 4 a right_id [3:0] $end
$var wire 1 b pass_valid $end
$var wire 16 c pass_key [15:0] $end
$var wire 4 d pass_id [3:0] $end
$var wire 1 e in_valid $end
$var wire 16 f in_key [15:0] $end
$var wire 4 g in_id [3:0] $end
$var parameter 32 h ID_WIDTH $end
$var parameter 32 i KEY_WIDTH $end
$var reg 4 j cell_id [3:0] $end
$var reg 16 k cell_key [15:0] $end
$var reg 1 l cell_valid $end
$upscope $end
$upscope $end
$scope begin g_cells[3] $end
$var parameter 3 m i $end
$scope module u_cell $end
$var wire 1 % clk $end
$var wire 1 - dequeue $end
$var wire 1 0 enqueue $end
$var wire 1 * flush $end
$var wire 1 n in_beats_cell $end
$var wire 1 o in_beats_right $end
$var wire 1 + rst_n $end
$var wire 1 p right_valid $end
$var wire 16 q right_key [15:0] $end
$var wire 4 r right_id [3:0] $end
$var wire 1 s pass_valid $end
$var wire 16 t pass_key [15:0] $end
$var wire 4 u pass_id [3:0] $end
$var wire 1 v in_valid $end
$var wire 16 w in_key [15:0] $end
$var wire 4 x in_id [3:0] $end
$var parameter 32 y ID_WIDTH $end
$var parameter 32 z KEY_WIDTH $end
$var reg 4 { cell_id [3:0] $end
$var reg 16 | cell_key [15:0] $end
$var reg 1 } cell_valid $end
$upscope $end
$upscope $end
$scope begin g_cells[4] $end
$var parameter 4 ~ i $end
$scope module u_cell $end
$var wire 1 % clk $end
$var wire 1 - dequeue $end
$var wire 1 0 enqueue $end
$var wire 1 * flush $end
$var wire 1 !" in_beats_cell $end
$var wire 1 "" in_beats_right $end
$var wire 1 + rst_n $end
$var wire 1 #" right_valid $end
$var wire 16 $" right_key [15:0] $end
$var wire 4 %" right_id [3:0] $end
$var wire 1 &" pass_valid $end
$var wire 16 '" pass_key [15:0] $end
$var wire 4 (" pass_id [3:0] $end
$var wire 1 )" in_valid $end
$var wire 16 *" in_key [15:0] $end
$var wire 4 +" in_id [3:0] $end
$var parameter 32 ," ID_WIDTH $end
$var parameter 32 -" KEY_WIDTH $end
$var reg 4 ." cell_id [3:0] $end
$var reg 16 /" cell_key [15:0] $end
$var reg 1 0" cell_valid $end
$upscope $end
$upscope $end
$scope begin g_cells[5] $end
$var parameter 4 1" i $end
$scope module u_cell $end
$var wire 1 % clk $end
$var wire 1 - dequeue $end
$var wire 1 0 enqueue $end
$var wire 1 * flush $end
$var wire 1 2" in_beats_cell $end
$var wire 1 3" in_beats_right $end
$var wire 1 + rst_n $end
$var wire 1 4" right_valid $end
$var wire 16 5" right_key [15:0] $end
$var wire 4 6" right_id [3:0] $end
$var wire 1 7" pass_valid $end
$var wire 16 8" pass_key [15:0] $end
$var wire 4 9" pass_id [3:0] $end
$var wire 1 :" in_valid $end
$var wire 16 ;" in_key [15:0] $end
$var wire 4 <" in_id [3:0] $end
$var parameter 32 =" ID_WIDTH $end
$var parameter 32 >" KEY_WIDTH $end
$var reg 4 ?" cell_id [3:0] $end
$var reg 16 @" cell_key [15:0] $end
$var reg 1 A" cell_valid $end
$upscope $end
$upscope $end
$scope begin g_cells[6] $end
$var parameter 4 B" i $end
$scope module u_cell $end
$var wire 1 % clk $end
$var wire 1 - dequeue $end
$var wire 1 0 enqueue $end
$var wire 1 * flush $end
$var wire 1 C" in_beats_cell $end
$var wire 1 D" in_beats_right $end
$var wire 1 + rst_n $end
$var wire 1 E" right_valid $end
$var wire 16 F" right_key [15:0] $end
$var wire 4 G" right_id [3:0] $end
$var wire 1 H" pass_valid $end
$var wire 16 I" pass_key [15:0] $end
$var wire 4 J" pass_id [3:0] $end
$var wire 1 K" in_valid $end
$var wire 16 L" in_key [15:0] $end
$var wire 4 M" in_id [3:0] $end
$var parameter 32 N" ID_WIDTH $end
$var parameter 32 O" KEY_WIDTH $end
$var reg 4 P" cell_id [3:0] $end
$var reg 16 Q" cell_key [15:0] $end
$var reg 1 R" cell_valid $end
$upscope $end
$upscope $end
$scope begin g_cells[7] $end
$var parameter 4 S" i $end
$scope module u_cell $end
$var wire 1 % clk $end
$var wire 1 - dequeue $end
$var wire 1 0 enqueue $end
$var wire 1 * flush $end
$var wire 1 T" in_beats_cell $end
$var wire 1 U" in_beats_right $end
$var wire 1 + rst_n $end
$var wire 1 V" right_valid $end
$var wire 16 W" right_key [15:0] $end
$var wire 4 X" right_id [3:0] $end
$var wire 1 Y" pass_valid $end
$var wire 16 Z" pass_key [15:0] $end
$var wire 4 [" pass_id [3:0] $end
$var wire 1 \" in_valid $end
$var wire 16 ]" in_key [15:0] $end
$var wire 4 ^" in_id [3:0] $end
$var parameter 32 _" ID_WIDTH $end
$var parameter 32 `" KEY_WIDTH $end
$var reg 4 a" cell_id [3:0] $end
$var reg 16 b" cell_key [15:0] $end
$var reg 1 c" cell_valid $end
$upscope $end
$upscope $end
$scope begin g_cells[8] $end
$var parameter 5 d" i $end
$scope module u_cell $end
$var wire 1 % clk $end
$var wire 1 - dequeue $end
$var wire 1 0 enqueue $end
$var wire 1 * flush $end
$var wire 1 e" in_beats_cell $end
$var wire 1 f" in_beats_right $end
$var wire 1 + rst_n $end
$var wire 1 g" right_valid $end
$var wire 16 h" right_key [15:0] $end
$var wire 4 i" right_id [3:0] $end
$var wire 1 j" pass_valid $end
$var wire 16 k" pass_key [15:0] $end
$var wire 4 l" pass_id [3:0] $end
$var wire 1 m" in_valid $end
$var wire 16 n" in_key [15:0] $end
$var wire 4 o" in_id [3:0] $end
$var parameter 32 p" ID_WIDTH $end
$var parameter 32 q" KEY_WIDTH $end
$var reg 4 r" cell_id [3:0] $end
$var reg 16 s" cell_key [15:0] $end
$var reg 1 t" cell_valid $end
$upscope $end
$upscope $end
$scope begin g_cells[9] $end
$var parameter 5 u" i $end
$scope module u_cell $end
$var wire 1 % clk $end
$var wire 1 - dequeue $end
$var wire 1 0 enqueue $end
$var wire 1 * flush $end
$var wire 1 v" in_beats_cell $end
$var wire 1 w" in_beats_right $end
$var wire 1 + rst_n $end
$var wire 1 x" right_valid $end
$var wire 16 y" right_key [15:0] $end
$var wire 4 z" right_id [3:0] $end
$var wire 1 {" pass_valid $end
$var wire 16 |" pass_key [15:0] $end
$var wire 4 }" pass_id [3:0] $end
$var wire 1 ~" in_valid $end
$var wire 16 !# in_key [15:0] $end
$var wire 4 "# in_id [3:0] $end
$var parameter 32 ## ID_WIDTH $end
$var parameter 32 $# KEY_WIDTH $end
$var reg 4 %# cell_id [3:0] $end
$var reg 16 &# cell_key [15:0] $end
$var reg 1 '# cell_valid $end
$upscope $end
$upscope $end
$scope begin g_cells[10] $end
$var parameter 5 (# i $end
$scope module u_cell $end
$var wire 1 % clk $end
$var wire 1 - dequeue $end
$var wire 1 0 enqueue $end
$var wire 1 * flush $end
$var wire 1 )# in_beats_cell $end
$var wire 1 *# in_beats_right $end
$var wire 1 + rst_n $end
$var wire 1 +# right_valid $end
$var wire 16 ,# right_key [15:0] $end
$var wire 4 -# right_id [3:0] $end
$var wire 1 .# pass_valid $end
$var wire 16 /# pass_key [15:0] $end
$var wire 4 0# pass_id [3:0] $end
$var wire 1 1# in_valid $end
$var wire 16 2# in_key [15:0] $end
$var wire 4 3# in_id [3:0] $end
$var parameter 32 4# ID_WIDTH $end
$var parameter 32 5# KEY_WIDTH $end
$var reg 4 6# cell_id [3:0] $end
$var reg 16 7# cell_key [15:0] $end
$var reg 1 8# cell_valid $end
$upscope $end
$upscope $end
$scope begin g_cells[11] $end
$var parameter 5 9# i $end
$scope module u_cell $end
$var wire 1 % clk $end
$var wire 1 - dequeue $end
$var wire 1 0 enqueue $end
$var wire 1 * flush $end
$var wire 1 :# in_beats_cell $end
$var wire 1 ;# in_beats_right $end
$var wire 1 + rst_n $end
$var wire 1 <# right_valid $end
$var wire 16 =# right_key [15:0] $end
$var wire 4 ># right_id [3:0] $end
$var wire 1 ?# pass_valid $end
$var wire 16 @# pass_key [15:0] $end
$var wire 4 A# pass_id [3:0] $end
$var wire 1 B# in_valid $end
$var wire 16 C# in_key [15:0] $end
$var wire 4 D# in_id [3:0] $end
$var parameter 32 E# ID_WIDTH $end
$var parameter 32 F# KEY_WIDTH $end
$var reg 4 G# cell_id [3:0] $end
$var reg 16 H# cell_key [15:0] $end
$var reg 1 I# cell_valid $end
$upscope $end
$upscope $end
$scope begin g_cells[12] $end
$var parameter 5 J# i $end
$scope module u_cell $end
$var wire 1 % clk $end
$var wire 1 - dequeue $end
$var wire 1 0 enqueue $end
$var wire 1 * flush $end
$var wire 1 K# in_beats_cell $end
$var wire 1 L# in_beats_right $end
$var wire 1 + rst_n $end
$var wire 1 M# right_valid $end
$var wire 16 N# right_key [15:0] $end
$var wire 4 O# right_id [3:0] $end
$var wire 1 P# pass_valid $end
$var wire 16 Q# pass_key [15:0] $end
$var wire 4 R# pass_id [3:0] $end
$var wire 1 S# in_valid $end
$var wire 16 T# in_key [15:0] $end
$var wire 4 U# in_id [3:0] $end
$var parameter 32 V# ID_WIDTH $end
$var parameter 32 W# KEY_WIDTH $end
$var reg 4 X# cell_id [3:0] $end
$var reg 16 Y# cell_key [15:0] $end
$var reg 1 Z# cell_valid $end
$upscope $end
$upscope $end
$scope begin g_cells[13] $end
$var parameter 5 [# i $end
$scope module u_cell $end
$var wire 1 % clk $end
$var wire 1 - dequeue $end
$var wire 1 0 enqueue $end
$var wire 1 * flush $end
$var wire 1 \# in_beats_cell $end
$var wire 1 ]# in_beats_right $end
$var wire 1 + rst_n $end
$var wire 1 ^# right_valid $end
$var wire 16 _# right_key [15:0] $end
$var wire 4 `# right_id [3:0] $end
$var wire 1 a# pass_valid $end
$var wire 16 b# pass_key [15:0] $end
$var wire 4 c# pass_id [3:0] $end
$var wire 1 d# in_valid $end
$var wire 16 e# in_key [15:0] $end
$var wire 4 f# in_id [3:0] $end
$var parameter 32 g# ID_WIDTH $end
$var parameter 32 h# KEY_WIDTH $end
$var reg 4 i# cell_id [3:0] $end
$var reg 16 j# cell_key [15:0] $end
$var reg 1 k# cell_valid $end
$upscope $end
$upscope $end
$scope begin g_cells[14] $end
$var parameter 5 l# i $end
$scope module u_cell $end
$var wire 1 % clk $end
$var wire 1 - dequeue $end
$var wire 1 0 enqueue $end
$var wire 1 * flush $end
$var wire 1 m# in_beats_cell $end
$var wire 1 n# in_beats_right $end
$var wire 1 + rst_n $end
$var wire 1 o# right_valid $end
$var wire 16 p# right_key [15:0] $end
$var wire 4 q# right_id [3:0] $end
$var wire 1 r# pass_valid $end
$var wire 16 s# pass_key [15:0] $end
$var wire 4 t# pass_id [3:0] $end
$var wire 1 u# in_valid $end
$var wire 16 v# in_key [15:0] $end
$var wire 4 w# in_id [3:0] $end
$var parameter 32 x# ID_WIDTH $end
$var parameter 32 y# KEY_WIDTH $end
$var reg 4 z# cell_id [3:0] $end
$var reg 16 {# cell_key [15:0] $end
$var reg 1 |# cell_valid $end
$upscope $end
$upscope $end
$scope begin g_cells[15] $end
$var parameter 5 }# i $end
$scope module u_cell $end
$var wire 1 % clk $end
$var wire 1 - dequeue $end
$var wire 1 0 enqueue $end
$var wire 1 * flush $end
$var wire 1 ~# in_beats_cell $end
$var wire 1 !$ in_beats_right $end
$var wire 4 "$ right_id [3:0] $end
$var wire 16 #$ right_key [15:0] $end
$var wire 1 $$ right_valid $end
$var wire 1 + rst_n $end
$var wire 1 %$ pass_valid $end
$var wire 16 &$ pass_key [15:0] $end
$var wire 4 '$ pass_id [3:0] $end
$var wire 1 ($ in_valid $end
$var wire 16 )$ in_key [15:0] $end
$var wire 4 *$ in_id [3:0] $end
$var parameter 32 +$ ID_WIDTH $end
$var parameter 32 ,$ KEY_WIDTH $end
$var reg 4 -$ cell_id [3:0] $end
$var reg 16 .$ cell_key [15:0] $end
$var reg 1 /$ cell_valid $end
$upscope $end
$upscope $end
$scope begin g_dbg[0] $end
$var parameter 2 0$ k $end
$upscope $end
$scope begin g_dbg[1] $end
$var parameter 2 1$ k $end
$upscope $end
$scope begin g_dbg[2] $end
$var parameter 3 2$ k $end
$upscope $end
$scope begin g_dbg[3] $end
$var parameter 3 3$ k $end
$upscope $end
$scope begin g_dbg[4] $end
$var parameter 4 4$ k $end
$upscope $end
$scope begin g_dbg[5] $end
$var parameter 4 5$ k $end
$upscope $end
$scope begin g_dbg[6] $end
$var parameter 4 6$ k $end
$upscope $end
$scope begin g_dbg[7] $end
$var parameter 4 7$ k $end
$upscope $end
$scope begin g_dbg[8] $end
$var parameter 5 8$ k $end
$upscope $end
$scope begin g_dbg[9] $end
$var parameter 5 9$ k $end
$upscope $end
$scope begin g_dbg[10] $end
$var parameter 5 :$ k $end
$upscope $end
$scope begin g_dbg[11] $end
$var parameter 5 ;$ k $end
$upscope $end
$scope begin g_dbg[12] $end
$var parameter 5 <$ k $end
$upscope $end
$scope begin g_dbg[13] $end
$var parameter 5 =$ k $end
$upscope $end
$scope begin g_dbg[14] $end
$var parameter 5 >$ k $end
$upscope $end
$scope begin g_dbg[15] $end
$var parameter 5 ?$ k $end
$upscope $end
$scope begin g_in[1] $end
$var parameter 2 @$ i $end
$upscope $end
$scope begin g_in[2] $end
$var parameter 3 A$ i $end
$upscope $end
$scope begin g_in[3] $end
$var parameter 3 B$ i $end
$upscope $end
$scope begin g_in[4] $end
$var parameter 4 C$ i $end
$upscope $end
$scope begin g_in[5] $end
$var parameter 4 D$ i $end
$upscope $end
$scope begin g_in[6] $end
$var parameter 4 E$ i $end
$upscope $end
$scope begin g_in[7] $end
$var parameter 4 F$ i $end
$upscope $end
$scope begin g_in[8] $end
$var parameter 5 G$ i $end
$upscope $end
$scope begin g_in[9] $end
$var parameter 5 H$ i $end
$upscope $end
$scope begin g_in[10] $end
$var parameter 5 I$ i $end
$upscope $end
$scope begin g_in[11] $end
$var parameter 5 J$ i $end
$upscope $end
$scope begin g_in[12] $end
$var parameter 5 K$ i $end
$upscope $end
$scope begin g_in[13] $end
$var parameter 5 L$ i $end
$upscope $end
$scope begin g_in[14] $end
$var parameter 5 M$ i $end
$upscope $end
$scope begin g_in[15] $end
$var parameter 5 N$ i $end
$upscope $end
$scope begin g_right[0] $end
$var parameter 2 O$ i $end
$upscope $end
$scope begin g_right[1] $end
$var parameter 2 P$ i $end
$upscope $end
$scope begin g_right[2] $end
$var parameter 3 Q$ i $end
$upscope $end
$scope begin g_right[3] $end
$var parameter 3 R$ i $end
$upscope $end
$scope begin g_right[4] $end
$var parameter 4 S$ i $end
$upscope $end
$scope begin g_right[5] $end
$var parameter 4 T$ i $end
$upscope $end
$scope begin g_right[6] $end
$var parameter 4 U$ i $end
$upscope $end
$scope begin g_right[7] $end
$var parameter 4 V$ i $end
$upscope $end
$scope begin g_right[8] $end
$var parameter 5 W$ i $end
$upscope $end
$scope begin g_right[9] $end
$var parameter 5 X$ i $end
$upscope $end
$scope begin g_right[10] $end
$var parameter 5 Y$ i $end
$upscope $end
$scope begin g_right[11] $end
$var parameter 5 Z$ i $end
$upscope $end
$scope begin g_right[12] $end
$var parameter 5 [$ i $end
$upscope $end
$scope begin g_right[13] $end
$var parameter 5 \$ i $end
$upscope $end
$scope begin g_right[14] $end
$var parameter 5 ]$ i $end
$upscope $end
$upscope $end
$scope task check_queue_invariant $end
$var reg 16 ^$ key_i [15:0] $end
$var reg 16 _$ key_next [15:0] $end
$var integer 32 `$ i [31:0] $end
$upscope $end
$scope task do_enq $end
$var reg 4 a$ id [3:0] $end
$var reg 16 b$ key [15:0] $end
$upscope $end
$upscope $end
$enddefinitions $end
$comment Show the parameter values. $end
$dumpall
b1110 ]$
b1101 \$
b1100 [$
b1011 Z$
b1010 Y$
b1001 X$
b1000 W$
b111 V$
b110 U$
b101 T$
b100 S$
b11 R$
b10 Q$
b1 P$
b0 O$
b1111 N$
b1110 M$
b1101 L$
b1100 K$
b1011 J$
b1010 I$
b1001 H$
b1000 G$
b111 F$
b110 E$
b101 D$
b100 C$
b11 B$
b10 A$
b1 @$
b1111 ?$
b1110 >$
b1101 =$
b1100 <$
b1011 ;$
b1010 :$
b1001 9$
b1000 8$
b111 7$
b110 6$
b101 5$
b100 4$
b11 3$
b10 2$
b1 1$
b0 0$
b10000 ,$
b100 +$
b1111 }#
b10000 y#
b100 x#
b1110 l#
b10000 h#
b100 g#
b1101 [#
b10000 W#
b100 V#
b1100 J#
b10000 F#
b100 E#
b1011 9#
b10000 5#
b100 4#
b1010 (#
b10000 $#
b100 ##
b1001 u"
b10000 q"
b100 p"
b1000 d"
b10000 `"
b100 _"
b111 S"
b10000 O"
b100 N"
b110 B"
b10000 >"
b100 ="
b101 1"
b10000 -"
b100 ,"
b100 ~
b10000 z
b100 y
b11 m
b10000 i
b100 h
b10 \
b10000 X
b100 W
b1 K
b10000 G
b100 F
b0 :
b10000 8
b100 7
b10000 6
$end
#0
$dumpvars
bx b$
bx a$
bx `$
bx _$
bx ^$
x/$
bx .$
bx -$
b0 *$
b0 )$
0($
b0 '$
b0 &$
0%$
0$$
b0 #$
b0 "$
0!$
0~#
x|#
bx {#
bx z#
b0 w#
b0 v#
0u#
b0 t#
b0 s#
0r#
bx q#
bx p#
xo#
0n#
0m#
xk#
bx j#
bx i#
b0 f#
b0 e#
0d#
b0 c#
b0 b#
0a#
bx `#
bx _#
x^#
0]#
0\#
xZ#
bx Y#
bx X#
b0 U#
b0 T#
0S#
b0 R#
b0 Q#
0P#
bx O#
bx N#
xM#
0L#
0K#
xI#
bx H#
bx G#
b0 D#
b0 C#
0B#
b0 A#
b0 @#
0?#
bx >#
bx =#
x<#
0;#
0:#
x8#
bx 7#
bx 6#
b0 3#
b0 2#
01#
b0 0#
b0 /#
0.#
bx -#
bx ,#
x+#
0*#
0)#
x'#
bx &#
bx %#
b0 "#
b0 !#
0~"
b0 }"
b0 |"
0{"
bx z"
bx y"
xx"
0w"
0v"
xt"
bx s"
bx r"
b0 o"
b0 n"
0m"
b0 l"
b0 k"
0j"
bx i"
bx h"
xg"
0f"
0e"
xc"
bx b"
bx a"
b0 ^"
b0 ]"
0\"
b0 ["
b0 Z"
0Y"
bx X"
bx W"
xV"
0U"
0T"
xR"
bx Q"
bx P"
b0 M"
b0 L"
0K"
b0 J"
b0 I"
0H"
bx G"
bx F"
xE"
0D"
0C"
xA"
bx @"
bx ?"
b0 <"
b0 ;"
0:"
b0 9"
b0 8"
07"
bx 6"
bx 5"
x4"
03"
02"
x0"
bx /"
bx ."
b0 +"
b0 *"
0)"
b0 ("
b0 '"
0&"
bx %"
bx $"
x#"
0""
0!"
x}
bx |
bx {
b0 x
b0 w
0v
b0 u
b0 t
0s
bx r
bx q
xp
0o
0n
xl
bx k
bx j
b0 g
b0 f
0e
b0 d
b0 c
0b
bx a
bx `
x_
0^
0]
x[
bx Z
bx Y
b0 V
b0 U
0T
b0 S
b0 R
0Q
bx P
bx O
xN
0M
0L
xJ
bx I
bx H
b0 E
b0 D
0C
bx B
bx A
x@
0?
b0 >
b0 =
0<
0;
bx 9
bx 5
bx 4
bx 3
bx 2
bx 1
00
b0 /
b0 .
0-
bx ,
0+
0*
0)
b0 (
b0 '
0&
0%
bx $
bx #
bx "
x!
$end
#5000
0!
0J
b0 "
b0 2
b0 I
b0 #
b0 1
b0 H
0@
0[
b0 A
b0 Z
b0 B
b0 Y
0N
0l
b0 O
b0 k
b0 P
b0 j
0_
0}
b0 `
b0 |
b0 a
b0 {
0p
00"
b0 q
b0 /"
b0 r
b0 ."
0#"
0A"
b0 $"
b0 @"
b0 %"
b0 ?"
04"
0R"
b0 5"
b0 Q"
b0 6"
b0 P"
0E"
0c"
b0 F"
b0 b"
b0 G"
b0 a"
0V"
0t"
b0 W"
b0 s"
b0 X"
b0 r"
0g"
0'#
b0 h"
b0 &#
b0 i"
b0 %#
0x"
08#
b0 y"
b0 7#
b0 z"
b0 6#
0+#
0I#
b0 ,#
b0 H#
b0 -#
b0 G#
0<#
0Z#
b0 =#
b0 Y#
b0 >#
b0 X#
0M#
0k#
b0 N#
b0 j#
b0 O#
b0 i#
0^#
0|#
b0 _#
b0 {#
b0 `#
b0 z#
b0 3
0o#
0/$
b0 4
b0 p#
b0 .$
b0 5
b0 q#
b0 -$
b0 $
b0 ,
b0 9
1%
#10000
0%
#15000
1%
#20000
0%
#25000
1+
1%
#30000
0%
#35000
b0 &$
b0 '$
b0 )$
b0 s#
b0 *$
b0 t#
b0 v#
b0 b#
b0 w#
b0 c#
b0 e#
b0 Q#
b0 f#
b0 R#
b0 T#
b0 @#
b0 U#
b0 A#
b0 C#
b0 /#
b0 D#
b0 0#
b0 2#
b0 |"
b0 3#
b0 }"
b0 !#
b0 k"
b0 "#
b0 l"
b0 n"
b0 Z"
b0 o"
b0 ["
b0 ]"
b0 I"
b0 ^"
b0 J"
b0 L"
b0 8"
b0 M"
b0 9"
b0 ;"
b0 '"
b0 <"
b0 ("
b0 *"
b0 t
b0 +"
b0 u
b0 w
b0 c
b0 x
b0 d
0M
0L
0T
0C
b0 f
b0 R
b0 g
b0 S
1;
1<
b0 U
b0 D
b0 V
b0 E
1?
10
1)
b1010 >
b1010 (
b1010 /
b1 =
b1 '
b1 .
b1010 b$
b1 a$
1%
#40000
0%
#45000
b1 3
1!
1J
b1010 4
b1010 "
b1010 2
b1010 I
b1 5
b1 #
b1 1
b1 H
b1 $
b1 ,
b1 9
b1 '$
b1010 &$
b1 *$
b1 t#
b1010 )$
b1010 s#
b1 w#
b1 c#
b1010 v#
b1010 b#
b1 f#
b1 R#
b1010 e#
b1010 Q#
b1 U#
b1 A#
b1010 T#
b1010 @#
b1 D#
b1 0#
b1010 C#
b1010 /#
b1 3#
b1 }"
b1010 2#
b1010 |"
b1 "#
b1 l"
b1010 !#
b1010 k"
b1 o"
b1 ["
b1010 n"
b1010 Z"
b1 ^"
b1 J"
b1010 ]"
b1010 I"
b1 M"
b1 9"
b1010 L"
b1010 8"
b1 <"
b1 ("
b1010 ;"
b1010 '"
b1 +"
b1 u
b1010 *"
b1010 t
b1 x
b1 d
b1010 w
b1010 c
b1 g
b1 S
b1010 f
b1010 R
b1 V
b1 E
b1010 U
b1010 D
0;
0<
0?
00
0)
1%
#50000
0%
#55000
b0 &$
b0 '$
b0 )$
b0 s#
b0 *$
b0 t#
b0 v#
b0 b#
b0 w#
b0 c#
b0 e#
b0 Q#
b0 f#
b0 R#
b0 T#
b0 @#
b0 U#
b0 A#
b0 C#
b0 /#
b0 D#
b0 0#
b0 2#
b0 |"
b0 3#
b0 }"
b0 !#
b0 k"
b0 "#
b0 l"
b0 n"
b0 Z"
b0 o"
b0 ["
b0 ]"
b0 I"
b0 ^"
b0 J"
b0 L"
b0 8"
b0 M"
b0 9"
b0 ;"
b0 '"
b0 <"
b0 ("
b0 *"
b0 t
b0 +"
b0 u
b0 w
b0 c
b0 x
b0 d
1M
1L
1T
1C
b0 f
b0 R
b0 g
b0 S
1<
1;
b1010 U
b1010 D
b1 V
b1 E
1?
10
1)
b11110 >
b11110 (
b11110 /
b10 =
b10 '
b10 .
b11110 b$
b10 a$
b10000 `$
1%
#60000
0%
#65000
b11110 "
b11110 2
b11110 I
b10 #
b10 1
b10 H
b11 3
1@
1[
b10100000000000011110 4
b1010 A
b1010 Z
b10010 5
b1 B
b1 Y
b10 $
b10 ,
b10 9
b10 '$
b11110 &$
b10 *$
b10 t#
b11110 )$
b11110 s#
b10 w#
b10 c#
b11110 v#
b11110 b#
b10 f#
b10 R#
b11110 e#
b11110 Q#
b10 U#
b10 A#
b11110 T#
b11110 @#
b10 D#
b10 0#
b11110 C#
b11110 /#
b10 3#
b10 }"
b11110 2#
b11110 |"
b10 "#
b10 l"
b11110 !#
b11110 k"
b10 o"
b10 ["
b11110 n"
b11110 Z"
b10 ^"
b10 J"
b11110 ]"
b11110 I"
b10 M"
b10 9"
b11110 L"
b11110 8"
b10 <"
b10 ("
b11110 ;"
b11110 '"
b10 +"
b10 u
b11110 *"
b11110 t
b10 x
b10 d
b11110 w
b11110 c
b10 g
b10 S
b11110 f
b11110 R
b10 V
b10 E
b11110 U
b11110 D
0M
0L
0;
0<
0T
0C
0?
00
0)
1%
#70000
0%
#75000
b0 &$
b0 '$
b0 )$
b0 s#
b0 *$
b0 t#
b0 v#
b0 b#
b0 w#
b0 c#
b0 e#
b0 Q#
b0 f#
b0 R#
b0 T#
b0 @#
b0 U#
b0 A#
b0 C#
b0 /#
b0 D#
b0 0#
b0 2#
b0 |"
b0 3#
b0 }"
b0 !#
b0 k"
b0 "#
b0 l"
b0 n"
b0 Z"
b0 o"
b0 ["
b0 ]"
b0 I"
b0 ^"
b0 J"
b0 L"
b0 8"
b0 M"
b0 9"
b0 ;"
b0 '"
b0 <"
b0 ("
1^
1]
b0 *"
b0 t
b0 +"
b0 u
1e
1Q
b0 w
b0 c
b0 x
b0 d
1M
1L
1T
1C
b1010 f
b1010 R
b1 g
b1 S
1<
b10100 U
b10100 D
b11 V
b11 E
1?
10
1)
b10100 >
b10100 (
b10100 /
b11 =
b11 '
b11 .
b10100 b$
b11 a$
b1010 _$
b11110 ^$
b10000 `$
1%
#80000
0%
#85000
b10100 A
b10100 Z
b11 B
b11 Y
b111 3
1N
1l
b101000000000000101000000000000011110 4
b1010 O
b1010 k
b100110010 5
b1 P
b1 j
b11 $
b11 ,
b11 9
b11 '$
b10100 &$
b11 *$
b11 t#
b10100 )$
b10100 s#
b11 w#
b11 c#
b10100 v#
b10100 b#
b11 f#
b11 R#
b10100 e#
b10100 Q#
b11 U#
b11 A#
b10100 T#
b10100 @#
b11 D#
b11 0#
b10100 C#
b10100 /#
b11 3#
b11 }"
b10100 2#
b10100 |"
b11 "#
b11 l"
b10100 !#
b10100 k"
b11 o"
b11 ["
b10100 n"
b10100 Z"
b11 ^"
b11 J"
b10100 ]"
b10100 I"
b11 M"
b11 9"
b10100 L"
b10100 8"
b11 <"
b11 ("
b10100 ;"
b10100 '"
b11 +"
b11 u
b10100 *"
b10100 t
b11 g
b11 S
b10100 f
b10100 R
b11 x
b11 d
b10100 w
b10100 c
0M
0L
0^
0]
0<
0T
0C
0e
0Q
0?
00
0)
1%
#90000
0%
#95000
1-
1&
b10100 ^$
b1010 _$
b10000 `$
1%
#100000
0%
#105000
b10100 "
b10100 2
b10100 I
b11 #
b11 1
b11 H
b1010 A
b1010 Z
b1 B
b1 Y
b11 3
0N
0l
b10100000000000010100 4
b0 O
b0 k
b10011 5
b0 P
b0 j
b10 $
b10 ,
b10 9
0-
0&
1%
#110000
0%
